This is BibTeX, Version 0.99d (TeX Live 2012)
Capacity: max_strings=35307, hash_size=35307, hash_prime=30011
The top-level auxiliary file: rotationmilkyway.aux
The style file: plain.bst
Database file #1: sources.bib
Name 1 in "Barron, E. G., Kaplan, G. H., Bangert, J., Bartlett, J. L., Puatua, W., Harris, W., and Barrett, P." has a comma at the end for entry novas
while executing---line 1049 of file plain.bst
Too many commas in name 1 of "Barron, E. G., Kaplan, G. H., Bangert, J., Bartlett, J. L., Puatua, W., Harris, W., and Barrett, P." for entry novas
while executing---line 1049 of file plain.bst
Too many commas in name 1 of "Barron, E. G., Kaplan, G. H., Bangert, J., Bartlett, J. L., Puatua, W., Harris, W., and Barrett, P." for entry novas
while executing---line 1049 of file plain.bst
Too many commas in name 1 of "Barron, E. G., Kaplan, G. H., Bangert, J., Bartlett, J. L., Puatua, W., Harris, W., and Barrett, P." for entry novas
while executing---line 1049 of file plain.bst
Too many commas in name 1 of "Barron, E. G., Kaplan, G. H., Bangert, J., Bartlett, J. L., Puatua, W., Harris, W., and Barrett, P." for entry novas
while executing---line 1049 of file plain.bst
Too many commas in name 1 of "Barron, E. G., Kaplan, G. H., Bangert, J., Bartlett, J. L., Puatua, W., Harris, W., and Barrett, P." for entry novas
while executing---line 1049 of file plain.bst
Too many commas in name 1 of "Barron, E. G., Kaplan, G. H., Bangert, J., Bartlett, J. L., Puatua, W., Harris, W., and Barrett, P." for entry novas
while executing---line 1049 of file plain.bst
Too many commas in name 1 of "Barron, E. G., Kaplan, G. H., Bangert, J., Bartlett, J. L., Puatua, W., Harris, W., and Barrett, P." for entry novas
while executing---line 1049 of file plain.bst
Too many commas in name 1 of "Barron, E. G., Kaplan, G. H., Bangert, J., Bartlett, J. L., Puatua, W., Harris, W., and Barrett, P." for entry novas
while executing---line 1049 of file plain.bst
Too many commas in name 1 of "Barron, E. G., Kaplan, G. H., Bangert, J., Bartlett, J. L., Puatua, W., Harris, W., and Barrett, P." for entry novas
while executing---line 1049 of file plain.bst
Name 1 in "Barron, E. G., Kaplan, G. H., Bangert, J., Bartlett, J. L., Puatua, W., Harris, W., and Barrett, P." has a comma at the end for entry novas
while executing---line 1090 of file plain.bst
Too many commas in name 1 of "Barron, E. G., Kaplan, G. H., Bangert, J., Bartlett, J. L., Puatua, W., Harris, W., and Barrett, P." for entry novas
while executing---line 1090 of file plain.bst
Too many commas in name 1 of "Barron, E. G., Kaplan, G. H., Bangert, J., Bartlett, J. L., Puatua, W., Harris, W., and Barrett, P." for entry novas
while executing---line 1090 of file plain.bst
Too many commas in name 1 of "Barron, E. G., Kaplan, G. H., Bangert, J., Bartlett, J. L., Puatua, W., Harris, W., and Barrett, P." for entry novas
while executing---line 1090 of file plain.bst
Too many commas in name 1 of "Barron, E. G., Kaplan, G. H., Bangert, J., Bartlett, J. L., Puatua, W., Harris, W., and Barrett, P." for entry novas
while executing---line 1090 of file plain.bst
Too many commas in name 1 of "Barron, E. G., Kaplan, G. H., Bangert, J., Bartlett, J. L., Puatua, W., Harris, W., and Barrett, P." for entry novas
while executing---line 1090 of file plain.bst
Too many commas in name 1 of "Barron, E. G., Kaplan, G. H., Bangert, J., Bartlett, J. L., Puatua, W., Harris, W., and Barrett, P." for entry novas
while executing---line 1090 of file plain.bst
Too many commas in name 1 of "Barron, E. G., Kaplan, G. H., Bangert, J., Bartlett, J. L., Puatua, W., Harris, W., and Barrett, P." for entry novas
while executing---line 1090 of file plain.bst
Too many commas in name 1 of "Barron, E. G., Kaplan, G. H., Bangert, J., Bartlett, J. L., Puatua, W., Harris, W., and Barrett, P." for entry novas
while executing---line 1090 of file plain.bst
Too many commas in name 1 of "Barron, E. G., Kaplan, G. H., Bangert, J., Bartlett, J. L., Puatua, W., Harris, W., and Barrett, P." for entry novas
while executing---line 1090 of file plain.bst
You've used 3 entries,
            2118 wiz_defined-function locations,
            517 strings with 4639 characters,
and the built_in function-call counts, 1011 in all, are:
= -- 91
> -- 64
< -- 0
+ -- 25
- -- 22
* -- 77
:= -- 184
add.period$ -- 8
call.type$ -- 3
change.case$ -- 18
chr.to.int$ -- 0
cite$ -- 3
duplicate$ -- 31
empty$ -- 69
format.name$ -- 22
if$ -- 199
int.to.chr$ -- 0
int.to.str$ -- 3
missing$ -- 2
newline$ -- 17
num.names$ -- 6
pop$ -- 16
preamble$ -- 1
purify$ -- 16
quote$ -- 0
skip$ -- 23
stack$ -- 0
substring$ -- 51
swap$ -- 4
text.length$ -- 0
text.prefix$ -- 0
top$ -- 0
type$ -- 12
warning$ -- 0
while$ -- 8
width$ -- 4
write$ -- 32
(There were 20 error messages)
