\relax 
\@writefile{lot}{\contentsline {table}{\numberline {1}{\ignorespaces Table of Observations}}{2}}
\@writefile{lof}{\contentsline {figure}{\numberline {1}{\ignorespaces Temperature vs. Frequency for $l=30^\circ $ (Raw Data)}}{3}}
\@writefile{lof}{\contentsline {figure}{\numberline {2}{\ignorespaces Temperature vs. Frequency for $l=30^\circ $ (Flattened)}}{4}}
\citation{Mohan:2004yh}
\citation{Mohan:2004yh}
\@writefile{lof}{\contentsline {figure}{\numberline {3}{\ignorespaces Temperature vs. Velocity for $l=30^\circ $}}{5}}
\citation{novas}
\citation{Eisenhauer:2003he}
\@writefile{lof}{\contentsline {figure}{\numberline {4}{\ignorespaces Temperature vs. Velocity Fit for $l=30^\circ $}}{6}}
\@writefile{lof}{\contentsline {figure}{\numberline {5}{\ignorespaces Temperature vs. Velocity Fit for $l=15^\circ $}}{7}}
\@writefile{lof}{\contentsline {figure}{\numberline {6}{\ignorespaces Temperature vs. Velocity Fit for $l=37^\circ $}}{7}}
\@writefile{lof}{\contentsline {figure}{\numberline {7}{\ignorespaces Temperature vs. Velocity Fit for $l=45^\circ $}}{8}}
\@writefile{lof}{\contentsline {figure}{\numberline {8}{\ignorespaces Temperature vs. Velocity Fit for $l=52^\circ $}}{8}}
\@writefile{lot}{\contentsline {table}{\numberline {2}{\ignorespaces Azimuthal Velocity and MaximumRadius}}{8}}
\bibstyle{plain}
\bibdata{sources}
\bibcite{novas}{1}
\bibcite{Eisenhauer:2003he}{2}
\bibcite{Mohan:2004yh}{3}
