Spectra obtained from the iBOB Roof spectometer + 3.8 m antenna
rspec_get_spec		Data acquisition program
104.000    		Total bandwidth = FPGA sample rate (MHz)
12.695     		Channel bandwidth in raw spectrum (kHz)
8192      		FFT length (number of channels)
60.000000  		Integration time per spectrum (sec)
260.000   		iBOB downconvert frequency (MHz)
1420.000  		Center Frequency = sum of local oscillator frequencies (MHz) 
9.991     		Output bandwidth (MHz)
787       		Number of output channels
-4.98926  		Frequency of first output sample (MHz)
4.98926   		Frequency of last output sample (MHz)
Spectrum: 0 MJD: 56981.8018 LST: 180736 RA(radians): 4.91353591 DEC(radians): RA(hhmmss): 18 46 05 DEC(ddmmss): -01 23 25 l(deg): 30 b(deg): 0 LocalDate: 14 11 20 LocalTime: 14 14 39 UTCDate: 14 11 20 UTC: 19 14 39
0 9967986.897638 1415.010742
1 9984266.078740 1415.023438
2 10135963.212598 1415.036133
3 9988150.137233 1415.048828
4 9958229.525309 1415.061523
5 9974363.572553 1415.074219
6 10029532.868391 1415.086914
7 10031428.823397 1415.099609
8 10036136.458943 1415.112305
9 10019772.040495 1415.125000
10 10021390.398200 1415.137695
11 10032490.834646 1415.150391
12 10021964.022497 1415.163086
13 10054188.346457 1415.175781
14 10048127.280090 1415.188477
15 10065909.633296 1415.201172
16 10102051.419573 1415.213867
17 10069652.013498 1415.226562
18 10048836.823397 1415.239258
19 10092078.650169 1415.251953
20 10107649.439820 1415.264648
21 10090175.784027 1415.277344
22 10081497.700787 1415.290039
23 10087436.670416 1415.302734
24 10117562.312711 1415.315430
25 10108733.336333 1415.328125
26 10117197.174353 1415.340820
27 10175423.496063 1415.353516
28 10115896.728909 1415.366211
29 10180641.403825 1415.378906
30 10153467.968504 1415.391602
31 10169172.373453 1415.404297
32 10164538.456693 1415.416992
33 10174047.028121 1415.429688
34 10202974.740157 1415.442383
35 10217156.391451 1415.455078
36 10232988.652418 1415.467773
37 10197038.074241 1415.480469
38 10209723.464567 1415.493164
39 10229678.218223 1415.505859
40 10252198.155231 1415.518555
41 10219165.228346 1415.531250
42 10210062.110236 1415.543945
43 10223537.673791 1415.556641
44 10235086.182227 1415.569336
45 10268555.662542 1415.582031
46 10260121.772778 1415.594727
47 10281928.710911 1415.607422
48 10307476.877390 1415.620117
49 10354238.776153 1415.632812
50 10322910.596175 1415.645508
51 10449156.319460 1415.658203
52 11119880.926884 1415.670898
53 10376599.757030 1415.683594
54 10350495.244094 1415.696289
55 10336269.822272 1415.708984
56 10344109.354331 1415.721680
57 10336242.177728 1415.734375
58 10350428.436445 1415.747070
59 10379399.919010 1415.759766
60 10341771.086614 1415.772461
61 10367190.245219 1415.785156
62 10373675.194601 1415.797852
63 10380732.616423 1415.810547
64 10412242.789651 1415.823242
65 10407019.122610 1415.835938
66 10387156.517435 1415.848633
67 10396319.532058 1415.861328
68 10430798.038245 1415.874023
69 10425047.973003 1415.886719
70 10430898.249719 1415.899414
71 10462957.858268 1415.912109
72 10439787.122610 1415.924805
73 10458826.150731 1415.937500
74 10447191.253093 1415.950195
75 10523547.788526 1415.962891
76 10499406.038245 1415.975586
77 10494295.253093 1415.988281
78 10505202.177728 1416.000977
79 10538381.390326 1416.013672
80 10532906.618673 1416.026367
81 10566141.120360 1416.039062
82 10544069.255343 1416.051758
83 10537646.506187 1416.064453
84 10543410.393701 1416.077148
85 10568436.769404 1416.089844
86 10544435.545557 1416.102539
87 10559857.745782 1416.115234
88 10589716.157480 1416.127930
89 10638425.844769 1416.140625
90 10547800.116985 1416.153320
91 10602517.885264 1416.166016
92 10611501.210349 1416.178711
93 10618684.184477 1416.191406
94 10616602.780652 1416.204102
95 10625087.352081 1416.216797
96 10645320.854893 1416.229492
97 10632648.134983 1416.242188
98 10657938.285714 1416.254883
99 10669510.983127 1416.267578
100 10656390.191226 1416.280273
101 10691840.863892 1416.292969
102 10663323.212598 1416.305664
103 10736965.975253 1416.318359
104 10716942.110236 1416.331055
105 10722097.817773 1416.343750
106 10705234.645669 1416.356445
107 10700131.923510 1416.369141
108 10719430.119235 1416.381836
109 10721032.350956 1416.394531
110 10760402.789651 1416.407227
111 10748081.385827 1416.419922
112 10762982.947132 1416.432617
113 10764965.291339 1416.445312
114 10767569.637795 1416.458008
115 10764053.021372 1416.470703
116 10811415.037120 1416.483398
117 10842659.131609 1416.496094
118 10798204.400450 1416.508789
119 10829534.884139 1416.521484
120 10804017.817773 1416.534180
121 10849699.275591 1416.546875
122 10833072.233971 1416.559570
123 10829633.943757 1416.572266
124 10860732.904387 1416.584961
125 10848074.006749 1416.597656
126 10883255.145107 1416.610352
127 10878974.848144 1416.623047
128 10888122.888639 1416.635742
129 10891837.624297 1416.648438
130 10944324.247469 1416.661133
131 10922714.276715 1416.673828
132 10890070.677165 1416.686523
133 10893079.325084 1416.699219
134 10897560.044994 1416.711914
135 10962378.438695 1416.724609
136 10936920.116985 1416.737305
137 10943860.049494 1416.750000
138 10928338.789651 1416.762695
139 10975299.959505 1416.775391
140 10979725.390326 1416.788086
141 10954309.687289 1416.800781
142 11021748.553431 1416.813477
143 10969071.874016 1416.826172
144 11059974.047244 1416.838867
145 10973012.373453 1416.851562
146 11028565.237345 1416.864258
147 11026000.053993 1416.876953
148 11013134.974128 1416.889648
149 11022167.829021 1416.902344
150 11004414.272216 1416.915039
151 11073716.841395 1416.927734
152 11026958.398200 1416.940430
153 11033132.346457 1416.953125
154 11045767.055118 1416.965820
155 11048093.804274 1416.978516
156 11059659.590551 1416.991211
157 11043686.803150 1417.003906
158 11073766.371204 1417.016602
159 11044916.985377 1417.029297
160 11096938.258718 1417.041992
161 11103868.976378 1417.054688
162 11081577.106862 1417.067383
163 11097234.285714 1417.080078
164 11115863.253093 1417.092773
165 11112650.726659 1417.105469
166 11121081.160855 1417.118164
167 11142588.616423 1417.130859
168 11110333.192351 1417.143555
169 11109600.611924 1417.156250
170 11113270.425197 1417.168945
171 11116052.157480 1417.181641
172 11139708.976378 1417.194336
173 11163662.974128 1417.207031
174 11167096.656918 1417.219727
175 11168764.544432 1417.232422
176 11165827.311586 1417.245117
177 11173351.235096 1417.257812
178 11182707.761530 1417.270508
179 11185907.617548 1417.283203
180 11178539.194601 1417.295898
181 11168478.884139 1417.308594
182 11185871.910011 1417.321289
183 11274901.165354 1417.333984
184 11177818.132733 1417.346680
185 11169926.767154 1417.359375
186 11192571.104612 1417.372070
187 11202435.599550 1417.384766
188 11178443.590551 1417.397461
189 11206869.093363 1417.410156
190 11246380.058493 1417.422852
191 11221377.871766 1417.435547
192 11236588.130484 1417.448242
193 11242305.943757 1417.460938
194 11254779.392576 1417.473633
195 11341430.065242 1417.486328
196 11381126.479190 1417.499023
197 11589728.755906 1417.511719
198 11268297.574803 1417.524414
199 11275570.393701 1417.537109
200 11247421.336333 1417.549805
201 11276835.131609 1417.562500
202 11274400.107987 1417.575195
203 11281002.546682 1417.587891
204 11295825.781777 1417.600586
205 11269096.962880 1417.613281
206 11257030.119235 1417.625977
207 11287073.979753 1417.638672
208 11316479.712036 1417.651367
209 11272362.474691 1417.664062
210 11252981.345332 1417.676758
211 11272918.821147 1417.689453
212 11294923.878515 1417.702148
213 11367828.301462 1417.714844
214 11263925.129359 1417.727539
215 11312426.330709 1417.740234
216 11273485.534308 1417.752930
217 11297379.635546 1417.765625
218 11322685.912261 1417.778320
219 11283242.906637 1417.791016
220 11320944.305962 1417.803711
221 11281433.340832 1417.816406
222 11292271.154106 1417.829102
223 11297422.254218 1417.841797
224 11289898.330709 1417.854492
225 11279753.934758 1417.867188
226 11287844.571429 1417.879883
227 11298511.910011 1417.892578
228 11282683.104612 1417.905273
229 11354039.433071 1417.917969
230 11306785.691789 1417.930664
231 11319376.629921 1417.943359
232 11312319.208099 1417.956055
233 11308683.950506 1417.968750
234 11343190.101237 1417.981445
235 11292693.885264 1417.994141
236 11300442.420697 1418.006836
237 11304486.587177 1418.019531
238 11305008.377953 1418.032227
239 11316630.605174 1418.044922
240 11278992.557930 1418.057617
241 11319042.591676 1418.070312
242 11317132.814398 1418.083008
243 11334287.406074 1418.095703
244 11321551.334083 1418.108398
245 11361949.228346 1418.121094
246 11301543.595051 1418.133789
247 11291764.337458 1418.146484
248 11288948.049494 1418.159180
249 11304953.088864 1418.171875
250 11316680.134983 1418.184570
251 11296439.721035 1418.197266
252 11370364.688414 1418.209961
253 11311603.905512 1418.222656
254 11294110.668166 1418.235352
255 11290645.885264 1418.248047
256 11293365.417323 1418.260742
257 11297197.642295 1418.273438
258 11263004.796400 1418.286133
259 11283314.321710 1418.298828
260 11275027.869516 1418.311523
261 11285992.386952 1418.324219
262 11314852.139483 1418.336914
263 11296299.194601 1418.349609
264 11269758.128234 1418.362305
265 11272656.197975 1418.375000
266 11302048.107987 1418.387695
267 11296503.073116 1418.400391
268 11293790.452193 1418.413086
269 11270285.678290 1418.425781
270 11337158.983127 1418.438477
271 11326527.352081 1418.451172
272 11318201.736783 1418.463867
273 11314081.547807 1418.476562
274 11280995.635546 1418.489258
275 11288722.285714 1418.501953
276 11282463.100112 1418.514648
277 11272809.394826 1418.527344
278 11270858.150731 1418.540039
279 11293355.050619 1418.552734
280 11306458.564679 1418.565430
281 11283503.226097 1418.578125
282 11268835.491564 1418.590820
283 11279516.652418 1418.603516
284 11267267.815523 1418.616211
285 11277719.757030 1418.628906
286 11305211.104612 1418.641602
287 11281181.084364 1418.654297
288 11292280.368954 1418.666992
289 11259005.552306 1418.679688
290 11277543.523060 1418.692383
291 11262492.220472 1418.705078
292 11266569.790776 1418.717773
293 11277705.934758 1418.730469
294 11241876.301462 1418.743164
295 11257192.530934 1418.755859
296 11259861.381327 1418.768555
297 11245707.374578 1418.781250
298 11244829.660292 1418.793945
299 11255061.597300 1418.806641
300 11259397.183352 1418.819336
301 11254985.574803 1418.832031
302 11230406.119235 1418.844727
303 11260478.776153 1418.857422
304 11233948.076490 1418.870117
305 11260746.006749 1418.882812
306 11241293.462317 1418.895508
307 11246166.965129 1418.908203
308 11226990.866142 1418.920898
309 11220898.699663 1418.933594
310 11226110.848144 1418.946289
311 11217968.377953 1418.958984
312 11216913.277840 1418.971680
313 11239199.388076 1418.984375
314 11414950.731159 1418.997070
315 11232800.827897 1419.009766
316 11224019.077615 1419.022461
317 11209567.892013 1419.035156
318 11213749.129359 1419.047852
319 11230123.914511 1419.060547
320 11189617.745782 1419.073242
321 11241347.599550 1419.085938
322 11202124.598425 1419.098633
323 11204603.392576 1419.111328
324 11190713.160855 1419.124023
325 11206834.537683 1419.136719
326 11205197.750281 1419.149414
327 11198872.908886 1419.162109
328 11182147.959505 1419.174805
329 11186606.794151 1419.187500
330 11207342.506187 1419.200195
331 11172129.115861 1419.212891
332 11167795.833521 1419.225586
333 11166625.547807 1419.238281
334 11207037.264342 1419.250977
335 11162185.142857 1419.263672
336 11161168.053993 1419.276367
337 11200576.503937 1419.289062
338 11173095.523060 1419.301758
339 11205709.174353 1419.314453
340 11236878.398200 1419.327148
341 11164604.040495 1419.339844
342 11165639.559055 1419.352539
343 11148968.746907 1419.365234
344 11172409.016873 1419.377930
345 11117785.700787 1419.390625
346 11136722.213723 1419.403320
347 11143180.670416 1419.416016
348 11170415.154106 1419.428711
349 11147869.876265 1419.441406
350 11169536.287964 1419.454102
351 11191812.031496 1419.466797
352 11141964.310461 1419.479492
353 11149681.745782 1419.492188
354 11146943.784027 1419.504883
355 11118579.329584 1419.517578
356 11136874.258718 1419.530273
357 11146292.985377 1419.542969
358 11146712.260967 1419.555664
359 11151751.631046 1419.568359
360 11126042.204724 1419.581055
361 11132608.935883 1419.593750
362 11137322.330709 1419.606445
363 11130055.271091 1419.619141
364 11141099.266592 1419.631836
365 11115319.577053 1419.644531
366 11132481.079865 1419.657227
367 11128697.232846 1419.669922
368 11141646.398200 1419.682617
369 11130732.562430 1419.695312
370 11152886.209224 1419.708008
371 11137133.426322 1419.720703
372 11121106.501687 1419.733398
373 11147641.808774 1419.746094
374 11172339.905512 1419.758789
375 11217535.280090 1419.771484
376 11217010.033746 1419.784180
377 11271864.872891 1419.796875
378 11304509.624297 1419.809570
379 11440115.329584 1419.822266
380 11640716.814398 1419.834961
381 11943047.919010 1419.847656
382 12338445.534308 1419.860352
383 12756274.393701 1419.873047
384 13211335.847019 1419.885742
385 13625239.181102 1419.898438
386 13962204.292463 1419.911133
387 14193256.242970 1419.923828
388 14333817.232846 1419.936523
389 14458378.942632 1419.949219
390 14532138.042745 1419.961914
391 14474086.803150 1419.974609
392 14493889.511811 1419.987305
393 14683729.205849 1420.000000
394 14674438.335208 1420.012695
395 14640588.742407 1420.025391
396 14528235.554556 1420.038086
397 14319006.668166 1420.050781
398 14198645.777278 1420.063477
399 13997789.732283 1420.076172
400 13824604.724409 1420.088867
401 13775414.713161 1420.101562
402 13881595.104612 1420.114258
403 14053674.330709 1420.126953
404 14335336.530934 1420.139648
405 14579238.587177 1420.152344
406 14797225.034871 1420.165039
407 14794710.533183 1420.177734
408 14700453.003375 1420.190430
409 14509224.170979 1420.203125
410 14387264.503937 1420.215820
411 14451084.238470 1420.228516
412 14701745.385827 1420.241211
413 15175530.258718 1420.253906
414 15595471.622047 1420.266602
415 15811939.923510 1420.279297
416 15768481.547807 1420.291992
417 15799205.003375 1420.304688
418 15985008.593926 1420.317383
419 16037676.058493 1420.330078
420 15623005.588301 1420.342773
421 15166766.938133 1420.355469
422 14984536.404949 1420.368164
423 14971743.892013 1420.380859
424 14325758.848144 1420.393555
425 13409095.703037 1420.406250
426 12967160.800900 1420.418945
427 12715912.206974 1420.431641
428 12736550.011249 1420.444336
429 12863923.401575 1420.457031
430 12992834.519685 1420.469727
431 13092781.066367 1420.482422
432 13087360.431946 1420.495117
433 13045720.836895 1420.507812
434 13020570.060742 1420.520508
435 13172347.824522 1420.533203
436 13314731.050619 1420.545898
437 13354875.536558 1420.558594
438 13246144.935883 1420.571289
439 13075361.547807 1420.583984
440 12853185.799775 1420.596680
441 12610342.299213 1420.609375
442 12315263.280090 1420.622070
443 12019427.491564 1420.634766
444 11785498.204724 1420.647461
445 11611580.616423 1420.660156
446 11477327.190101 1420.672852
447 11401774.650169 1420.685547
448 11363710.416198 1420.698242
449 11328808.026997 1420.710938
450 11320882.105737 1420.723633
451 11321849.664792 1420.736328
452 11311524.427447 1420.749023
453 11302835.977503 1420.761719
454 11315303.667042 1420.774414
455 11302027.374578 1420.787109
456 11317958.695163 1420.799805
457 11279994.672666 1420.812500
458 11310775.721035 1420.825195
459 11323326.344207 1420.837891
460 11319844.283465 1420.850586
461 11307506.753656 1420.863281
462 11321732.175478 1420.875977
463 11313744.053993 1420.888672
464 11309378.519685 1420.901367
465 11321003.050619 1420.914062
466 11324915.905512 1420.926758
467 11325851.212598 1420.939453
468 11327869.264342 1420.952148
469 11313762.483690 1420.964844
470 11363162.132733 1420.977539
471 11328234.402700 1420.990234
472 11349009.277840 1421.002930
473 11368307.473566 1421.015625
474 11340930.159730 1421.028320
475 11362435.311586 1421.041016
476 11363506.537683 1421.053711
477 11367751.127109 1421.066406
478 11376150.461192 1421.079102
479 11369702.371204 1421.091797
480 11393390.290214 1421.104492
481 11397962.006749 1421.117188
482 11404319.100112 1421.129883
483 11363524.967379 1421.142578
484 11402072.980877 1421.155273
485 11382079.064117 1421.167969
486 11442239.352081 1421.180664
487 11393710.506187 1421.193359
488 11392438.857143 1421.206055
489 11400428.130484 1421.218750
490 11429642.654668 1421.231445
491 11409775.442070 1421.244141
492 11428262.731159 1421.256836
493 11435450.312711 1421.269531
494 11439208.818898 1421.282227
495 11449487.982002 1421.294922
496 11421773.174353 1421.307617
497 11471114.078740 1421.320312
498 11485544.530934 1421.333008
499 11462918.623172 1421.345703
500 11503323.428571 1421.358398
501 11480429.138358 1421.371094
502 11480975.118110 1421.383789
503 11501665.907762 1421.396484
504 11504391.199100 1421.409180
505 11484295.919010 1421.421875
506 11483322.600675 1421.434570
507 11486894.506187 1421.447266
508 11498811.608549 1421.459961
509 11503803.752531 1421.472656
510 11534064.161980 1421.485352
511 11530013.084364 1421.498047
512 11548270.002250 1421.510742
513 11527993.880765 1421.523438
514 11533518.182227 1421.536133
515 11550225.853768 1421.548828
516 11593620.877390 1421.561523
517 11521893.651294 1421.574219
518 11569026.447694 1421.586914
519 11555710.992126 1421.599609
520 11544106.042745 1421.612305
521 11559656.098988 1421.625000
522 11577463.793026 1421.637695
523 11570762.294713 1421.650391
524 11595223.109111 1421.663086
525 11592292.787402 1421.675781
526 11620172.310461 1421.688477
527 11615609.808774 1421.701172
528 11596961.259843 1421.713867
529 11610450.645669 1421.726562
530 11607394.771654 1421.739258
531 11610516.301462 1421.751953
532 11641908.985377 1421.764648
533 11628372.373453 1421.777344
534 11624367.370079 1421.790039
535 11646084.463442 1421.802734
536 11669391.118110 1421.815430
537 11659503.586052 1421.828125
538 11637186.375703 1421.840820
539 11652477.264342 1421.853516
540 11655732.409449 1421.866211
541 11662003.113611 1421.878906
542 11665253.651294 1421.891602
543 11704662.101237 1421.904297
544 11680284.220472 1421.916992
545 11687941.759280 1421.929688
546 11688106.474691 1421.942383
547 11686345.286839 1421.955078
548 11725959.919010 1421.967773
549 11709211.932508 1421.980469
550 11762328.620922 1421.993164
551 11816093.804274 1422.005859
552 11736831.136108 1422.018555
553 12428664.656918 1422.031250
554 11891936.611924 1422.043945
555 11729552.557930 1422.056641
556 11737752.620922 1422.069336
557 11731230.812148 1422.082031
558 11763379.113611 1422.094727
559 11760504.080990 1422.107422
560 11734469.831271 1422.120117
561 11726063.586052 1422.132812
562 11750585.448819 1422.145508
563 11745141.777278 1422.158203
564 11931089.349831 1422.170898
565 11812140.634421 1422.183594
566 11772022.641170 1422.196289
567 11764501.021372 1422.208984
568 11747840.575928 1422.221680
569 11766357.813273 1422.234375
570 11761953.115861 1422.247070
571 11778834.717660 1422.259766
572 11774559.028121 1422.272461
573 11761020.112486 1422.285156
574 11786138.636670 1422.297852
575 11771977.718785 1422.310547
576 11771932.796400 1422.323242
577 11765208.260967 1422.335938
578 11778141.300337 1422.348633
579 11787255.937008 1422.361328
580 11761973.849269 1422.374023
581 11791320.836895 1422.386719
582 11778932.625422 1422.399414
583 11776116.337458 1422.412109
584 11754532.859393 1422.424805
585 11804018.897638 1422.437500
586 11804504.980877 1422.450195
587 11798703.082115 1422.462891
588 11788138.258718 1422.475586
589 11768055.649044 1422.488281
590 11802284.202475 1422.500977
591 11778536.386952 1422.513672
592 11802812.904387 1422.526367
593 11808440.872891 1422.539062
594 11797156.139483 1422.551758
595 11780229.615298 1422.564453
596 11785839.154106 1422.577148
597 11786221.570304 1422.589844
598 11798700.778403 1422.602539
599 11789542.371204 1422.615234
600 11797800.026997 1422.627930
601 11770937.592801 1422.640625
602 11801537.799775 1422.653320
603 11767424.431946 1422.666016
604 11827575.505062 1422.678711
605 11778293.345332 1422.691406
606 11752835.023622 1422.704102
607 11799760.485939 1422.716797
608 11792225.043870 1422.729492
609 11787289.340832 1422.742188
610 11749461.237345 1422.754883
611 11774112.107987 1422.767578
612 11758391.577053 1422.780273
613 11773295.442070 1422.792969
614 11772391.235096 1422.805664
615 11812617.502812 1422.818359
616 11774982.911136 1422.831055
617 11757538.051744 1422.843750
618 11794120.998875 1422.856445
619 11787626.834646 1422.869141
620 11765852.148481 1422.881836
621 11753063.091114 1422.894531
622 11767598.362205 1422.907227
623 11780463.442070 1422.919922
624 11764510.236220 1422.932617
625 11766157.390326 1422.945312
626 11759082.690664 1422.958008
627 11751959.613048 1422.970703
628 11764386.987627 1422.983398
629 11785787.320585 1422.996094
630 11750410.366704 1423.008789
631 11749931.194601 1423.021484
632 11745212.040495 1423.034180
633 11738974.740157 1423.046875
634 11705341.696288 1423.059570
635 11732082.033746 1423.072266
636 11727305.286839 1423.084961
637 11744368.881890 1423.097656
638 11692579.131609 1423.110352
639 11691894.929134 1423.123047
640 11687749.399325 1423.135742
641 11699763.257593 1423.148438
642 11701719.109111 1423.161133
643 11688956.544432 1423.173828
644 11687948.670416 1423.186523
645 11691290.204724 1423.199219
646 11694687.028121 1423.211914
647 11675355.428571 1423.224609
648 11660080.665917 1423.237305
649 11654259.185602 1423.250000
650 11656512.215973 1423.262695
651 11630400.791901 1423.275391
652 11653919.388076 1423.288086
653 11648612.787402 1423.300781
654 11619879.739033 1423.313477
655 11638263.361080 1423.326172
656 11646299.860517 1423.338867
657 11624778.582677 1423.351562
658 11585597.048369 1423.364258
659 11582346.510686 1423.376953
660 11561125.867267 1423.389648
661 11579895.361080 1423.402344
662 11563415.757030 1423.415039
663 11567281.385827 1423.427734
664 11544435.473566 1423.440430
665 11570938.528684 1423.453125
666 11558478.902137 1423.465820
667 11541677.930259 1423.478516
668 11518136.296963 1423.491211
669 11507701.633296 1423.503906
670 11532066.843645 1423.516602
671 11512878.074241 1423.529297
672 11523001.736783 1423.541992
673 11487106.447694 1423.554688
674 11488465.637795 1423.567383
675 11478439.883015 1423.580078
676 11465032.278965 1423.592773
677 11449764.427447 1423.605469
678 11448302.722160 1423.618164
679 11452002.483690 1423.630859
680 11426477.354331 1423.643555
681 11425421.102362 1423.656250
682 11409968.953881 1423.668945
683 11410377.862767 1423.681641
684 11402477.282340 1423.694336
685 11407275.914511 1423.707031
686 11390072.944882 1423.719727
687 11403007.136108 1423.732422
688 11375670.137233 1423.745117
689 11355001.232846 1423.757812
690 11385710.866142 1423.770508
691 11364639.964004 1423.783203
692 11341714.573678 1423.795898
693 11354120.062992 1423.808594
694 11332804.967379 1423.821289
695 11292592.521935 1423.833984
696 11315853.102362 1423.846680
697 11328285.084364 1423.859375
698 11294285.750281 1423.872070
699 11300020.841395 1423.884766
700 11285322.006749 1423.897461
701 11284177.061867 1423.910156
702 11275765.057368 1423.922852
703 11250747.896513 1423.935547
704 11238236.436445 1423.948242
705 11223018.114736 1423.960938
706 11209752.188976 1423.973633
707 11216435.257593 1423.986328
708 11200905.934758 1423.999023
709 11188833.331834 1424.011719
710 11184961.943757 1424.024414
711 11189599.316085 1424.037109
712 11169053.660292 1424.049805
713 11210291.257593 1424.062500
714 11258754.447694 1424.075195
715 11161174.965129 1424.087891
716 11141444.823397 1424.100586
717 11152090.276715 1424.113281
718 11130134.749156 1424.125977
719 11100003.347582 1424.138672
720 11102840.368954 1424.151367
721 11090651.428571 1424.164062
722 11083005.408324 1424.176758
723 11060957.732283 1424.189453
724 11086694.803150 1424.202148
725 11072759.649044 1424.214844
726 11037306.672666 1424.227539
727 11047255.253093 1424.240234
728 11050338.771654 1424.252930
729 11020321.403825 1424.265625
730 11004782.866142 1424.278320
731 11010735.658043 1424.291016
732 10955526.047244 1424.303711
733 11006684.580427 1424.316406
734 10978406.515186 1424.329102
735 10968538.564679 1424.341797
736 10970241.007874 1424.354492
737 10957005.030371 1424.367188
738 10937346.303712 1424.379883
739 10922506.942632 1424.392578
740 10935836.220472 1424.405273
741 10913584.665917 1424.417969
742 10892458.474691 1424.430664
743 10886740.661417 1424.443359
744 10883766.569179 1424.456055
745 10881791.136108 1424.468750
746 10855873.223847 1424.481445
747 10854192.665917 1424.494141
748 10855782.227222 1424.506836
749 10816652.526434 1424.519531
750 10829105.241845 1424.532227
751 10803737.916760 1424.544922
752 10821326.758155 1424.557617
753 10785275.968504 1424.570312
754 10779035.212598 1424.583008
755 10789811.977503 1424.595703
756 10770717.660292 1424.608398
757 10774814.812148 1424.621094
758 10740342.065242 1424.633789
759 10750192.737908 1424.646484
760 10749053.552306 1424.659180
761 10726698.330709 1424.671875
762 10709420.490439 1424.684570
763 10702238.668166 1424.697266
764 10736170.042745 1424.709961
765 10662190.938133 1424.722656
766 10690273.187852 1424.735352
767 10689457.673791 1424.748047
768 10667863.829021 1424.760742
769 10664598.317210 1424.773438
770 10638556.004499 1424.786133
771 10668495.046119 1424.798828
772 10627750.443195 1424.811523
773 10618369.727784 1424.824219
774 10616653.462317 1424.836914
775 10602620.400450 1424.849609
776 10598442.618673 1424.862305
777 10620399.298088 1424.875000
778 10580963.203600 1424.887695
779 10597748.049494 1424.900391
780 10557297.169854 1424.913086
781 10548936.998875 1424.925781
782 10571592.854893 1424.938477
783 10562106.168729 1424.951172
784 10580049.781777 1424.963867
785 10599550.704162 1424.976562
786 10650345.250844 1424.989258
