Spectra obtained from the iBOB Roof spectometer + 3.8 m antenna
rspec_get_spec		Data acquisition program
104.000    		Total bandwidth = FPGA sample rate (MHz)
12.695     		Channel bandwidth in raw spectrum (kHz)
8192      		FFT length (number of channels)
60.000000  		Integration time per spectrum (sec)
260.000   		iBOB downconvert frequency (MHz)
1420.000  		Center Frequency = sum of local oscillator frequencies (MHz) 
9.991     		Output bandwidth (MHz)
787       		Number of output channels
-4.98926  		Frequency of first output sample (MHz)
4.98926   		Frequency of last output sample (MHz)
Spectrum: 0 MJD: 56981.8071 LST: 181515 RA(radians): 4.91346531 DEC(radians): -0.0242794697 RA(hhmmss): 18 46 05 DEC(ddmmss): 00 00 00 l(deg): 30 b(deg): 0 LocalDate: 14 11 20 LocalTime: 14 22 16 UTCDate: 14 11 20 UTC: 19 22 16
0 10064047.082115 1415.010742
1 10063169.367829 1415.023438
2 10295294.848144 1415.036133
3 10067264.215973 1415.048828
4 10054695.163105 1415.061523
5 10086545.133858 1415.074219
6 10109447.487064 1415.086914
7 10143662.218223 1415.099609
8 10074982.803150 1415.112305
9 10108191.964004 1415.125000
10 10122680.008999 1415.137695
11 10132971.842520 1415.150391
12 10138621.696288 1415.163086
13 10148043.878515 1415.175781
14 10156522.690664 1415.188477
15 10129907.905512 1415.201172
16 10223830.245219 1415.213867
17 10203753.394826 1415.226562
18 10137515.914511 1415.239258
19 10178716.652418 1415.251953
20 10194556.976378 1415.264648
21 10165016.476940 1415.277344
22 10185251.131609 1415.290039
23 10183599.370079 1415.302734
24 10186116.175478 1415.315430
25 10231787.266592 1415.328125
26 10206096.269966 1415.340820
27 10263153.457818 1415.353516
28 10227933.156355 1415.366211
29 10255630.686164 1415.378906
30 10239752.350956 1415.391602
31 10244355.167604 1415.404297
32 10258286.866142 1415.416992
33 10256965.687289 1415.429688
34 10287176.566929 1415.442383
35 10295063.325084 1415.455078
36 10303824.341957 1415.467773
37 10279299.023622 1415.480469
38 10284845.210349 1415.493164
39 10325420.490439 1415.505859
40 10298705.493813 1415.518555
41 10310861.030371 1415.531250
42 10307211.950506 1415.543945
43 10339341.822272 1415.556641
44 10320257.871766 1415.569336
45 10355917.030371 1415.582031
46 10353131.842520 1415.594727
47 10355776.503937 1415.607422
48 10435790.182227 1415.620117
49 10379756.994376 1415.632812
50 10401732.103487 1415.645508
51 10458361.952756 1415.658203
52 10408682.402700 1415.670898
53 10423526.371204 1415.683594
54 10441461.921260 1415.696289
55 10433952.971879 1415.708984
56 10438672.125984 1415.721680
57 10466544.737908 1415.734375
58 10455546.816648 1415.747070
59 10466029.858268 1415.759766
60 10449029.615298 1415.772461
61 10501792.683915 1415.785156
62 10525014.101237 1415.797852
63 10489151.064117 1415.810547
64 10529051.356580 1415.823242
65 10505057.043870 1415.835938
66 10536355.275591 1415.848633
67 10527925.993251 1415.861328
68 10573046.497188 1415.874023
69 10593051.932508 1415.886719
70 10562888.278965 1415.899414
71 10571690.762655 1415.912109
72 10549954.087739 1415.924805
73 10581572.535433 1415.937500
74 10587033.484814 1415.950195
75 10655684.103487 1415.962891
76 10601264.665917 1415.975586
77 10616726.029246 1415.988281
78 10681875.005624 1416.000977
79 10628820.517435 1416.013672
80 10673654.209224 1416.026367
81 10665085.552306 1416.039062
82 10671034.888639 1416.051758
83 10653826.159730 1416.064453
84 10668969.610799 1416.077148
85 10671314.789651 1416.089844
86 10678322.681665 1416.102539
87 10693887.712036 1416.115234
88 10704541.228346 1416.127930
89 10763464.422947 1416.140625
90 10698626.447694 1416.153320
91 10709451.590551 1416.166016
92 10748860.040495 1416.178711
93 10761028.247469 1416.191406
94 10727937.727784 1416.204102
95 10746359.361080 1416.216797
96 10792859.788526 1416.229492
97 10799515.212598 1416.242188
98 10801331.689539 1416.254883
99 10793467.968504 1416.267578
100 10776696.944882 1416.280273
101 10823213.498313 1416.292969
102 10785892.211474 1416.305664
103 10870065.241845 1416.318359
104 10824132.679415 1416.331055
105 10867559.955006 1416.343750
106 10862004.553431 1416.356445
107 10881997.318335 1416.369141
108 10873329.601800 1416.381836
109 10888898.087739 1416.394531
110 10948833.763780 1416.407227
111 10901370.384702 1416.419922
112 10905962.834646 1416.432617
113 10886115.203600 1416.445312
114 10923904.143982 1416.458008
115 10929793.583802 1416.470703
116 10947626.618673 1416.483398
117 10998862.326209 1416.496094
118 10971957.273341 1416.508789
119 11006799.766029 1416.521484
120 10949673.466817 1416.534180
121 10993007.442070 1416.546875
122 10975382.893138 1416.559570
123 10989926.227222 1416.572266
124 11013136.125984 1416.584961
125 11001138.393701 1416.597656
126 11012700.724409 1416.610352
127 11002263.757030 1416.623047
128 11016107.914511 1416.635742
129 11046713.880765 1416.648438
130 11100241.781777 1416.661133
131 11071149.354331 1416.673828
132 11077918.812148 1416.686523
133 11075840.863892 1416.699219
134 11068466.681665 1416.711914
135 11112052.913386 1416.724609
136 11094377.682790 1416.737305
137 11102280.566929 1416.750000
138 11095969.547807 1416.762695
139 11117906.645669 1416.775391
140 11137880.980877 1416.788086
141 11110473.718785 1416.800781
142 11204953.556805 1416.813477
143 11141503.568054 1416.826172
144 11199163.176603 1416.838867
145 11162291.113611 1416.851562
146 11199940.679415 1416.864258
147 11253923.563555 1416.876953
148 11155571.185602 1416.889648
149 11219139.815523 1416.902344
150 11192672.467942 1416.915039
151 11273787.320585 1416.927734
152 11205784.044994 1416.940430
153 11200295.451069 1416.953125
154 11218637.606299 1416.965820
155 11235869.372328 1416.978516
156 11286529.151856 1416.991211
157 11245706.222722 1417.003906
158 11243877.075366 1417.016602
159 11223974.155231 1417.029297
160 11283861.453318 1417.041992
161 11300984.944882 1417.054688
162 11274117.903262 1417.067383
163 11283037.876265 1417.080078
164 11285547.770529 1417.092773
165 11340313.916760 1417.105469
166 11280749.138358 1417.118164
167 11331072.575928 1417.130859
168 11315631.946007 1417.143555
169 11292297.646794 1417.156250
170 11337474.591676 1417.168945
171 11327680.359955 1417.181641
172 11333096.386952 1417.194336
173 11351918.866142 1417.207031
174 11382669.966254 1417.219727
175 11341427.761530 1417.232422
176 11328421.003375 1417.245117
177 11350776.224972 1417.257812
178 11385486.254218 1417.270508
179 11382189.642295 1417.283203
180 11375397.147357 1417.295898
181 11336718.974128 1417.308594
182 11343934.200225 1417.321289
183 11455076.787402 1417.333984
184 11393995.014623 1417.346680
185 11396459.986502 1417.359375
186 11392167.019123 1417.372070
187 11391395.275591 1417.384766
188 11388459.194601 1417.397461
189 11404436.589426 1417.410156
190 11385227.086614 1417.422852
191 11411550.452193 1417.435547
192 11414748.004499 1417.448242
193 11416317.984252 1417.460938
194 11453620.841395 1417.473633
195 11494557.804274 1417.486328
196 11586816.863892 1417.499023
197 11825724.472441 1417.511719
198 11482416.089989 1417.524414
199 11460732.400450 1417.537109
200 11458239.784027 1417.549805
201 11446220.166479 1417.562500
202 11492054.821147 1417.575195
203 11472985.844769 1417.587891
204 11518583.217098 1417.600586
205 11408508.400450 1417.613281
206 11440789.165354 1417.625977
207 11467986.789651 1417.638672
208 11500509.444319 1417.651367
209 11483852.454443 1417.664062
210 11467039.964004 1417.676758
211 11485841.709786 1417.689453
212 11449214.992126 1417.702148
213 11550877.804274 1417.714844
214 11469980.652418 1417.727539
215 11477938.825647 1417.740234
216 11495528.818898 1417.752930
217 11469716.877390 1417.765625
218 11541544.314961 1417.778320
219 11486282.870641 1417.791016
220 11529270.137233 1417.803711
221 11467122.897638 1417.816406
222 11491992.620922 1417.829102
223 11474035.185602 1417.841797
224 11503080.386952 1417.854492
225 11492779.338583 1417.867188
226 11491633.241845 1417.879883
227 11488601.556805 1417.892578
228 11515172.571429 1417.905273
229 11579766.353206 1417.917969
230 11524815.910011 1417.930664
231 11517722.780652 1417.943359
232 11560294.227222 1417.956055
233 11516160.863892 1417.968750
234 11593441.187852 1417.981445
235 11499610.996625 1417.994141
236 11504407.325084 1418.006836
237 11509344.179978 1418.019531
238 11542627.059618 1418.032227
239 11543662.578178 1418.044922
240 11513341.120360 1418.057617
241 11567534.794151 1418.070312
242 11511602.969629 1418.083008
243 11551226.816648 1418.095703
244 11535336.962880 1418.108398
245 11529657.160855 1418.121094
246 11508507.932508 1418.133789
247 11527802.672666 1418.146484
248 11503270.443195 1418.159180
249 11520126.704162 1418.171875
250 11535477.489314 1418.184570
251 11486959.010124 1418.197266
252 11582614.893138 1418.209961
253 11498353.169854 1418.222656
254 11547181.498313 1418.235352
255 11507403.302587 1418.248047
256 11522637.750281 1418.260742
257 11513858.303712 1418.273438
258 11461062.983127 1418.286133
259 11509452.454443 1418.298828
260 11542109.876265 1418.311523
261 11457548.670416 1418.324219
262 11505865.574803 1418.336914
263 11505423.262092 1418.349609
264 11476990.848144 1418.362305
265 11484378.852643 1418.375000
266 11527974.299213 1418.387695
267 11495015.091114 1418.400391
268 11484211.833521 1418.413086
269 11487029.273341 1418.425781
270 11551673.736783 1418.438477
271 11541734.371204 1418.451172
272 11481268.841395 1418.463867
273 11538106.024747 1418.476562
274 11476192.611924 1418.489258
275 11472111.586052 1418.501953
276 11497602.159730 1418.514648
277 11450622.560180 1418.527344
278 11513128.026997 1418.540039
279 11471912.314961 1418.552734
280 11499119.154106 1418.565430
281 11470867.581552 1418.578125
282 11477474.627672 1418.590820
283 11464859.500562 1418.603516
284 11449520.233971 1418.616211
285 11458841.052868 1418.628906
286 11436952.332958 1418.641602
287 11454076.976378 1418.654297
288 11467280.701912 1418.666992
289 11465778.681665 1418.679688
290 11435005.696288 1418.692383
291 11452502.389201 1418.705078
292 11442337.259843 1418.717773
293 11458902.101237 1418.730469
294 11453634.663667 1418.743164
295 11439567.046119 1418.755859
296 11469517.606299 1418.768555
297 11424072.278965 1418.781250
298 11465969.889764 1418.793945
299 11420017.745782 1418.806641
300 11449294.470191 1418.819336
301 11446159.118110 1418.832031
302 11428434.357705 1418.844727
303 11420968.026997 1418.857422
304 11422632.458943 1418.870117
305 11414966.857143 1418.882812
306 11400865.835771 1418.895508
307 11426225.097863 1418.908203
308 11409909.057368 1418.920898
309 11399844.139483 1418.933594
310 11422813.300337 1418.946289
311 11369496.188976 1418.958984
312 11411900.616423 1418.971680
313 11452459.770529 1418.984375
314 11718619.140607 1418.997070
315 11451705.304837 1419.009766
316 11415828.445444 1419.022461
317 11389604.139483 1419.035156
318 11405537.763780 1419.047852
319 11410923.842520 1419.060547
320 11341155.923510 1419.073242
321 11420326.443195 1419.085938
322 11363691.986502 1419.098633
323 11371988.805399 1419.111328
324 11355791.406074 1419.124023
325 11363993.772778 1419.136719
326 11348002.555681 1419.149414
327 11340263.235096 1419.162109
328 11386336.323960 1419.174805
329 11342420.661417 1419.187500
330 11341925.363330 1419.200195
331 11343368.638920 1419.212891
332 11346606.506187 1419.225586
333 11336929.763780 1419.238281
334 11336442.528684 1419.250977
335 11370142.380202 1419.263672
336 11334004.049494 1419.276367
337 11365663.964004 1419.289062
338 11352364.634421 1419.301758
339 11363971.887514 1419.314453
340 11455115.950506 1419.327148
341 11320602.204724 1419.339844
342 11323226.132733 1419.352539
343 11303310.542182 1419.365234
344 11332745.070866 1419.377930
345 11333345.187852 1419.390625
346 11335204.283465 1419.403320
347 11311197.300337 1419.416016
348 11306748.832396 1419.428711
349 11321455.730034 1419.441406
350 11318456.296963 1419.454102
351 11366660.319460 1419.466797
352 11297680.269966 1419.479492
353 11327000.764904 1419.492188
354 11302497.331834 1419.504883
355 11304100.715411 1419.517578
356 11278432.755906 1419.530273
357 11285684.841395 1419.542969
358 11324692.445444 1419.555664
359 11274500.319460 1419.568359
360 11294478.110236 1419.581055
361 11291030.605174 1419.593750
362 11277868.346457 1419.606445
363 11257501.228346 1419.619141
364 11261735.451069 1419.631836
365 11283141.543307 1419.644531
366 11260910.722160 1419.657227
367 11275031.325084 1419.669922
368 11222291.293588 1419.682617
369 11285667.563555 1419.695312
370 11305534.776153 1419.708008
371 11283159.973003 1419.720703
372 11258132.445444 1419.733398
373 11300569.124859 1419.746094
374 11274870.065242 1419.758789
375 11317653.453318 1419.771484
376 11347203.167604 1419.784180
377 11398863.910011 1419.796875
378 11471364.031496 1419.809570
379 11597310.272216 1419.822266
380 11782373.219348 1419.834961
381 12071136.611924 1419.847656
382 12482037.057368 1419.860352
383 12960626.321710 1419.873047
384 13391548.328459 1419.885742
385 13785321.826772 1419.898438
386 14095226.384702 1419.911133
387 14324786.681665 1419.923828
388 14456727.181102 1419.936523
389 14560957.480315 1419.949219
390 14653922.627672 1419.961914
391 14623283.257593 1419.974609
392 14648393.718785 1419.987305
393 14784050.105737 1420.000000
394 14798472.494938 1420.012695
395 14740142.506187 1420.025391
396 14650053.543307 1420.038086
397 14511341.282340 1420.050781
398 14309708.886389 1420.063477
399 14142421.381327 1420.076172
400 13975069.372328 1420.088867
401 13926173.084364 1420.101562
402 13958643.905512 1420.114258
403 14179491.563555 1420.126953
404 14470146.303712 1420.139648
405 14727182.974128 1420.152344
406 14894559.172103 1420.165039
407 14902149.903262 1420.177734
408 14825602.159730 1420.190430
409 14626393.268841 1420.203125
410 14532651.770529 1420.215820
411 14614790.623172 1420.228516
412 14853364.193476 1420.241211
413 15288149.525309 1420.253906
414 15751012.499438 1420.266602
415 15987817.970754 1420.279297
416 15898251.950506 1420.291992
417 15914551.865017 1420.304688
418 16092399.586052 1420.317383
419 16134975.640045 1420.330078
420 15735050.078740 1420.342773
421 15323514.960630 1420.355469
422 15143194.204724 1420.368164
423 15088236.850394 1420.380859
424 14480233.106862 1420.393555
425 13661145.988751 1420.406250
426 13295673.592801 1420.418945
427 12853496.800900 1420.431641
428 12879002.348706 1420.444336
429 12966286.542182 1420.457031
430 13128486.299213 1420.469727
431 13208297.250844 1420.482422
432 13219209.934758 1420.495117
433 13123038.020247 1420.507812
434 13134678.677165 1420.520508
435 13280731.716535 1420.533203
436 13438601.646794 1420.545898
437 13455339.266592 1420.558594
438 13336203.950506 1420.571289
439 13167642.492688 1420.583984
440 13000604.940382 1420.596680
441 12706276.931384 1420.609375
442 12435504.377953 1420.622070
443 12114174.560180 1420.634766
444 11867316.841395 1420.647461
445 11679260.220472 1420.660156
446 11574708.553431 1420.672852
447 11490104.728909 1420.685547
448 11463715.707537 1420.698242
449 11457575.163105 1420.710938
450 11450723.923510 1420.723633
451 11407455.604049 1420.736328
452 11405654.101237 1420.749023
453 11381617.169854 1420.761719
454 11394361.304837 1420.774414
455 11420598.281215 1420.787109
456 11434528.827897 1420.799805
457 11398671.550056 1420.812500
458 11399444.445444 1420.825195
459 11385415.991001 1420.837891
460 11396652.346457 1420.850586
461 11414631.667042 1420.863281
462 11428078.434196 1420.875977
463 11413506.303712 1420.888672
464 11426164.049494 1420.901367
465 11401705.538808 1420.914062
466 11411004.472441 1420.926758
467 11416145.205849 1420.939453
468 11430288.845894 1420.952148
469 11424791.037120 1420.964844
470 11419002.960630 1420.977539
471 11434755.743532 1420.990234
472 11429581.606299 1421.002930
473 11444479.712036 1421.015625
474 11442959.262092 1421.028320
475 11431318.605174 1421.041016
476 11451658.078740 1421.053711
477 11475304.530934 1421.066406
478 11458949.327334 1421.079102
479 11457701.867267 1421.091797
480 11461670.011249 1421.104492
481 11453269.525309 1421.117188
482 11478484.805399 1421.129883
483 11453043.761530 1421.142578
484 11492481.007874 1421.155273
485 11498190.758155 1421.167969
486 11495839.820022 1421.180664
487 11489822.524184 1421.193359
488 11478876.436445 1421.206055
489 11509481.250844 1421.218750
490 11507303.091114 1421.231445
491 11505809.133858 1421.244141
492 11535826.501687 1421.256836
493 11520070.263217 1421.269531
494 11558366.020247 1421.282227
495 11572804.535433 1421.294922
496 11573905.709786 1421.307617
497 11536345.988751 1421.320312
498 11612183.037120 1421.333008
499 11592827.248594 1421.345703
500 11679908.715411 1421.358398
501 11673925.975253 1421.371094
502 11601620.517435 1421.383789
503 11595779.455568 1421.396484
504 11617235.077615 1421.409180
505 11609149.048369 1421.421875
506 11651349.597300 1421.434570
507 11605171.689539 1421.447266
508 11641467.824522 1421.459961
509 11621362.177728 1421.472656
510 11623716.571429 1421.485352
511 11639156.049494 1421.498047
512 11649518.146232 1421.510742
513 11639848.314961 1421.523438
514 11626959.046119 1421.536133
515 11629645.174353 1421.548828
516 11657537.367829 1421.561523
517 11643323.464567 1421.574219
518 11622249.106862 1421.586914
519 11694696.242970 1421.599609
520 11693347.419573 1421.612305
521 11701040.665917 1421.625000
522 11685613.858268 1421.637695
523 11694323.041620 1421.650391
524 11653472.467942 1421.663086
525 11678580.625422 1421.675781
526 11711087.154106 1421.688477
527 11705997.102362 1421.701172
528 11693577.790776 1421.713867
529 11707526.767154 1421.726562
530 11718378.402700 1421.739258
531 11699250.681665 1421.751953
532 11701297.529809 1421.764648
533 11727556.391451 1421.777344
534 11740887.973003 1421.790039
535 11719148.994376 1421.802734
536 11747225.484814 1421.815430
537 11729884.292463 1421.828125
538 11759457.043870 1421.840820
539 11724243.653543 1421.853516
540 11768533.669291 1421.866211
541 11741185.151856 1421.878906
542 11754235.680540 1421.891602
543 11757920.467942 1421.904297
544 11753367.181102 1421.916992
545 11751356.040495 1421.929688
546 11758722.159730 1421.942383
547 11734902.929134 1421.955078
548 11811579.680540 1421.967773
549 11777694.380202 1421.980469
550 11805114.312711 1421.993164
551 11880332.814398 1422.005859
552 11811569.313836 1422.018555
553 11923669.093363 1422.031250
554 11818034.681665 1422.043945
555 11801556.229471 1422.056641
556 11800453.903262 1422.069336
557 11808694.281215 1422.082031
558 11816331.086614 1422.094727
559 11805769.718785 1422.107422
560 11794911.172103 1422.120117
561 11778024.962880 1422.132812
562 11825232.629921 1422.145508
563 11995997.588301 1422.158203
564 11875027.365579 1422.170898
565 11781495.505062 1422.183594
566 11792809.034871 1422.196289
567 11821163.122610 1422.208984
568 11806558.740157 1422.221680
569 11797889.871766 1422.234375
570 11802660.859393 1422.247070
571 11825016.080990 1422.259766
572 11841359.766029 1422.272461
573 11835273.358830 1422.285156
574 11811387.320585 1422.297852
575 11830699.338583 1422.310547
576 11831213.066367 1422.323242
577 11816939.266592 1422.335938
578 11836478.200225 1422.348633
579 11851048.026997 1422.361328
580 11843412.373453 1422.374023
581 11835304.458943 1422.386719
582 11833334.785152 1422.399414
583 11846425.628796 1422.412109
584 11860618.798650 1422.424805
585 11850722.051744 1422.437500
586 11850283.194601 1422.450195
587 11834258.573678 1422.462891
588 11860221.408324 1422.475586
589 11863858.969629 1422.488281
590 11844617.214848 1422.500977
591 11859605.165354 1422.513672
592 11841502.596175 1422.526367
593 11856943.226097 1422.539062
594 11840525.822272 1422.551758
595 11852491.302587 1422.564453
596 11861805.210349 1422.577148
597 11865328.737908 1422.589844
598 11874576.989876 1422.602539
599 11876933.687289 1422.615234
600 11872090.132733 1422.627930
601 11828930.087739 1422.640625
602 11856034.411699 1422.653320
603 11864093.948256 1422.666016
604 11877895.487064 1422.678711
605 11830126.866142 1422.691406
606 11851774.848144 1422.704102
607 11846128.449944 1422.716797
608 11843677.300337 1422.729492
609 11848121.160855 1422.742188
610 11844746.222722 1422.754883
611 11865986.447694 1422.767578
612 11852980.841395 1422.780273
613 11852054.749156 1422.792969
614 11865074.177728 1422.805664
615 11821303.649044 1422.818359
616 11831217.673791 1422.831055
617 11832162.195726 1422.843750
618 11829307.896513 1422.856445
619 11818420.553431 1422.869141
620 11825889.187852 1422.881836
621 11805868.778403 1422.894531
622 11816964.607424 1422.907227
623 11791963.572553 1422.919922
624 11822293.093363 1422.932617
625 11803305.898763 1422.945312
626 11790628.571429 1422.958008
627 11795386.888639 1422.970703
628 11818967.685039 1422.983398
629 11813643.806524 1422.996094
630 11762514.069741 1423.008789
631 11889765.363330 1423.021484
632 11761927.775028 1423.034180
633 11749090.339708 1423.046875
634 11749485.426322 1423.059570
635 11769219.023622 1423.072266
636 11760424.602925 1423.084961
637 11754378.510686 1423.097656
638 11753789.912261 1423.110352
639 11731775.640045 1423.123047
640 11744110.866142 1423.135742
641 11707284.877390 1423.148438
642 11718106.564679 1423.161133
643 11702155.662542 1423.173828
644 11697200.377953 1423.186523
645 11712028.220472 1423.199219
646 11731006.200225 1423.211914
647 11708181.021372 1423.224609
648 11733929.610799 1423.237305
649 11681423.406074 1423.250000
650 11673412.247469 1423.262695
651 11694402.519685 1423.275391
652 11672888.152981 1423.288086
653 11683519.784027 1423.300781
654 11667006.776153 1423.313477
655 11639480.872891 1423.326172
656 11636158.920135 1423.338867
657 11643746.195726 1423.351562
658 11651694.002250 1423.364258
659 11621252.751406 1423.376953
660 11608174.578178 1423.389648
661 11632527.118110 1423.402344
662 11618867.257593 1423.415039
663 11617495.397075 1423.427734
664 11608893.336333 1423.440430
665 11603688.098988 1423.453125
666 11563380.049494 1423.465820
667 11560577.583802 1423.478516
668 11566890.906637 1423.491211
669 11553326.650169 1423.503906
670 11561109.741282 1423.516602
671 11563726.758155 1423.529297
672 11561237.597300 1423.541992
673 11520678.443195 1423.554688
674 11517958.911136 1423.567383
675 11545594.240720 1423.580078
676 11517640.998875 1423.592773
677 11481536.071991 1423.605469
678 11487346.033746 1423.618164
679 11460857.952756 1423.630859
680 11473321.034871 1423.643555
681 11448423.667042 1423.656250
682 11457233.061867 1423.668945
683 11463815.919010 1423.681641
684 11465808.629921 1423.694336
685 11429712.917885 1423.707031
686 11447874.231721 1423.719727
687 11429403.068616 1423.732422
688 11412425.862767 1423.745117
689 11407487.856018 1423.757812
690 11383351.865017 1423.770508
691 11354501.327334 1423.783203
692 11382566.299213 1423.795898
693 11378325.165354 1423.808594
694 11363112.602925 1423.821289
695 11337354.798650 1423.833984
696 11342152.278965 1423.846680
697 11337251.131609 1423.859375
698 11322461.300337 1423.872070
699 11338315.446569 1423.884766
700 11325772.886389 1423.897461
701 11295898.348706 1423.910156
702 11293789.300337 1423.922852
703 11275394.159730 1423.935547
704 11258686.488189 1423.948242
705 11263403.338583 1423.960938
706 11243456.647919 1423.973633
707 11272781.750281 1423.986328
708 11231233.151856 1423.999023
709 11226143.100112 1424.011719
710 11211209.286839 1424.024414
711 11218368.071991 1424.037109
712 11202212.139483 1424.049805
713 11248618.114736 1424.062500
714 11371380.625422 1424.075195
715 11225357.534308 1424.087891
716 11167609.232846 1424.100586
717 11152850.501687 1424.113281
718 11166491.932508 1424.125977
719 11130527.532058 1424.138672
720 11136141.678290 1424.151367
721 11106279.811024 1424.164062
722 11104024.476940 1424.176758
723 11089741.462317 1424.189453
724 11127249.349831 1424.202148
725 11084660.625422 1424.214844
726 11067466.870641 1424.227539
727 11055009.547807 1424.240234
728 11058249.718785 1424.252930
729 11074255.910011 1424.265625
730 11045103.586052 1424.278320
731 11024844.742407 1424.291016
732 11021819.968504 1424.303711
733 11012540.616423 1424.316406
734 10990164.661417 1424.329102
735 11016067.599550 1424.341797
736 11013588.805399 1424.354492
737 10983908.931384 1424.367188
738 10978247.559055 1424.379883
739 10971411.293588 1424.392578
740 10956235.590551 1424.405273
741 10929234.933633 1424.417969
742 10921644.202475 1424.430664
743 10918375.235096 1424.443359
744 10917306.312711 1424.456055
745 10910486.173228 1424.468750
746 10884299.878515 1424.481445
747 10899210.654668 1424.494141
748 10888390.119235 1424.506836
749 10879132.652418 1424.519531
750 10844356.967379 1424.532227
751 10856262.551181 1424.544922
752 10835905.799775 1424.557617
753 10831496.494938 1424.570312
754 10824785.781777 1424.583008
755 10813554.033746 1424.595703
756 10804032.791901 1424.608398
757 10786628.247469 1424.621094
758 10810847.172103 1424.633789
759 10796751.910011 1424.646484
760 10780548.751406 1424.659180
761 10790393.664792 1424.671875
762 10762631.631046 1424.684570
763 10780811.374578 1424.697266
764 10728350.092238 1424.709961
765 10715729.205849 1424.722656
766 10739471.262092 1424.735352
767 10731448.584927 1424.748047
768 10698950.119235 1424.760742
769 10723992.620922 1424.773438
770 10703097.952756 1424.786133
771 10692255.532058 1424.798828
772 10685919.172103 1424.811523
773 10664757.273341 1424.824219
774 10656275.005624 1424.836914
775 10654698.114736 1424.849609
776 10643661.030371 1424.862305
777 10604935.631046 1424.875000
778 10662170.204724 1424.887695
779 10650506.510686 1424.900391
780 10596228.751406 1424.913086
781 10608189.624297 1424.925781
782 10610615.433071 1424.938477
783 10614068.697413 1424.951172
784 10635217.925759 1424.963867
785 10655119.694038 1424.976562
786 10686392.584927 1424.989258
