Spectra obtained from the iBOB Roof spectometer + 3.8 m antenna
rspec_get_spec		Data acquisition program
104.000    		Total bandwidth = FPGA sample rate (MHz)
12.695     		Channel bandwidth in raw spectrum (kHz)
8192      		FFT length (number of channels)
80.000000  		Integration time per spectrum (sec)
260.000   		iBOB downconvert frequency (MHz)
1420.000  		Center Frequency = sum of local oscillator frequencies (MHz) 
9.991     		Output bandwidth (MHz)
787       		Number of output channels
-4.98926  		Frequency of first output sample (MHz)
4.98926   		Frequency of last output sample (MHz)
Spectrum: 0 MJD: 56981.835 LST: 185530 RA(radians): 4.96931614 DEC(radians): 0.0631773266 RA(hhmmss): 18 58 53 DEC(ddmmss): 03 37 11 l(deg): 37 b(deg): 0 LocalDate: 14 11 20 LocalTime: 15 02 25 UTCDate: 14 11 20 UTC: 20 02 25
0 9675939.183811 1415.010742
1 9720211.210793 1415.023438
2 9792748.573356 1415.036133
3 9685579.979764 1415.048828
4 9702067.588533 1415.061523
5 9708923.898820 1415.074219
6 9800905.173693 1415.086914
7 9726181.666105 1415.099609
8 9733136.404722 1415.112305
9 9748846.084317 1415.125000
10 9747712.431703 1415.137695
11 9758448.890388 1415.150391
12 9742648.553120 1415.163086
13 9786347.278246 1415.175781
14 9763379.804384 1415.188477
15 9800758.394604 1415.201172
16 9796294.583474 1415.213867
17 9814149.827993 1415.226562
18 9772866.913997 1415.239258
19 9804224.107926 1415.251953
20 9802885.827993 1415.264648
21 9804952.822934 1415.277344
22 9826006.988196 1415.290039
23 9808046.408094 1415.302734
24 9829799.932546 1415.315430
25 9830607.217538 1415.328125
26 9826706.347386 1415.340820
27 9891680.269815 1415.353516
28 9861896.202361 1415.366211
29 9887050.684654 1415.378906
30 9865613.166948 1415.391602
31 9889370.657673 1415.404297
32 9898787.831366 1415.416992
33 9887876.964587 1415.429688
34 9896371.156830 1415.442383
35 10052514.752108 1415.455078
36 9945084.546374 1415.467773
37 9898144.593592 1415.480469
38 9960293.450253 1415.493164
39 9921706.954469 1415.505859
40 9935766.664418 1415.518555
41 9954449.052277 1415.531250
42 9943450.981450 1415.543945
43 9954985.227656 1415.556641
44 9991774.111298 1415.569336
45 9989278.866779 1415.582031
46 9966691.291737 1415.594727
47 9994176.971332 1415.607422
48 10007854.192243 1415.620117
49 10011527.123103 1415.632812
50 10004927.244519 1415.645508
51 10034727.716695 1415.658203
52 10026567.662732 1415.670898
53 10022769.537943 1415.683594
54 10058368.647555 1415.696289
55 10138002.347386 1415.708984
56 10146659.723440 1415.721680
57 10204915.480607 1415.734375
58 10045434.819562 1415.747070
59 10077506.050590 1415.759766
60 10073037.059022 1415.772461
61 10111393.888702 1415.785156
62 10108768.269815 1415.797852
63 10104264.741990 1415.810547
64 10089795.777403 1415.823242
65 10094114.536256 1415.835938
66 10117891.021922 1415.848633
67 10125275.736931 1415.861328
68 10172546.374368 1415.874023
69 10130678.070826 1415.886719
70 10153891.615514 1415.899414
71 10153084.330523 1415.912109
72 10144577.187184 1415.924805
73 10195604.505902 1415.937500
74 10189199.757167 1415.950195
75 10255242.576728 1415.962891
76 10192016.188870 1415.975586
77 10227237.126476 1415.988281
78 10223063.419899 1416.000977
79 10238549.477234 1416.013672
80 10253371.575042 1416.026367
81 10247861.315346 1416.039062
82 10258921.551433 1416.051758
83 10244658.940978 1416.064453
84 10269149.463744 1416.077148
85 10268922.387858 1416.089844
86 10269016.499157 1416.102539
87 10273714.293423 1416.115234
88 10279054.462057 1416.127930
89 10355891.588533 1416.140625
90 10303880.849916 1416.153320
91 10292560.728499 1416.166016
92 10310605.059022 1416.178711
93 10334391.905565 1416.191406
94 10343611.359191 1416.204102
95 10325870.084317 1416.216797
96 10393513.659359 1416.229492
97 10346432.107926 1416.242188
98 10379852.843170 1416.254883
99 10387098.549747 1416.267578
100 10387787.548061 1416.280273
101 10389716.397976 1416.292969
102 10400271.541315 1416.305664
103 10417511.177066 1416.318359
104 10398783.028668 1416.331055
105 10450079.730185 1416.343750
106 10414969.308600 1416.356445
107 10408745.875211 1416.369141
108 10431260.060708 1416.381836
109 10444699.844857 1416.394531
110 10479961.362563 1416.407227
111 10457467.898820 1416.419922
112 10494748.060708 1416.432617
113 10492830.435076 1416.445312
114 10502801.052277 1416.458008
115 10502938.333895 1416.470703
116 10525481.011804 1416.483398
117 10504020.182125 1416.496094
118 10500778.954469 1416.508789
119 10520553.551433 1416.521484
120 10534160.836425 1416.534180
121 10527870.057336 1416.546875
122 10527582.543002 1416.559570
123 10551694.893761 1416.572266
124 10556503.204047 1416.584961
125 10541939.264755 1416.597656
126 10562262.124789 1416.610352
127 10562054.907251 1416.623047
128 10604432.620573 1416.635742
129 10616077.382799 1416.648438
130 10678154.576728 1416.661133
131 10618541.544688 1416.673828
132 10633617.483980 1416.686523
133 10601965.868465 1416.699219
134 10620205.328836 1416.711914
135 10641850.064081 1416.724609
136 10632804.155143 1416.737305
137 10673790.920742 1416.750000
138 10649258.954469 1416.762695
139 10655901.139966 1416.775391
140 10651070.381113 1416.788086
141 10665530.711636 1416.800781
142 10737655.365936 1416.813477
143 10681401.848229 1416.826172
144 10755525.288364 1416.838867
145 10659821.868465 1416.851562
146 10748340.883642 1416.864258
147 10720177.430017 1416.876953
148 10721074.509275 1416.889648
149 10721821.355818 1416.902344
150 10719348.559865 1416.915039
151 10777857.295110 1416.927734
152 10726457.848229 1416.940430
153 10750533.935919 1416.953125
154 10749813.854975 1416.965820
155 10768523.008432 1416.978516
156 10786701.166948 1416.991211
157 10777786.495784 1417.003906
158 10765421.652614 1417.016602
159 10779608.283305 1417.029297
160 10816798.650927 1417.041992
161 10793274.279933 1417.054688
162 10795475.966273 1417.067383
163 10795913.713322 1417.080078
164 10818233.632378 1417.092773
165 10817239.851602 1417.105469
166 10819360.377740 1417.118164
167 10838869.045531 1417.130859
168 10839849.011804 1417.143555
169 10834143.622260 1417.156250
170 10858289.645868 1417.168945
171 10852335.595278 1417.181641
172 10858510.677909 1417.194336
173 10855121.807757 1417.207031
174 10899632.134907 1417.219727
175 10866865.861720 1417.232422
176 10895500.735245 1417.245117
177 10903198.003373 1417.257812
178 10904133.935919 1417.270508
179 10883109.126476 1417.283203
180 10880052.667791 1417.295898
181 10887975.284992 1417.308594
182 10897523.696459 1417.321289
183 11006887.069140 1417.333984
184 10900032.755481 1417.346680
185 10924120.067454 1417.359375
186 10927318.124789 1417.372070
187 10929823.730185 1417.384766
188 10920712.202361 1417.397461
189 10928406.016863 1417.410156
190 10946689.510961 1417.422852
191 10914154.630691 1417.435547
192 10941979.629005 1417.448242
193 10949927.284992 1417.460938
194 10986528.809444 1417.473633
195 11084241.376054 1417.486328
196 11112817.537943 1417.499023
197 11254404.101180 1417.511719
198 11023135.514334 1417.524414
199 10986065.160202 1417.537109
200 10969426.455312 1417.549805
201 11041124.586847 1417.562500
202 10989224.364250 1417.575195
203 11006241.241147 1417.587891
204 11003976.526138 1417.600586
205 10990263.905565 1417.613281
206 10978329.902192 1417.625977
207 10989114.711636 1417.638672
208 11052676.964587 1417.651367
209 11001552.944351 1417.664062
210 10989795.939292 1417.676758
211 11007543.258010 1417.689453
212 11014637.005059 1417.702148
213 11071342.084317 1417.714844
214 11000547.939292 1417.727539
215 11053430.718381 1417.740234
216 11004575.730185 1417.752930
217 10997545.011804 1417.765625
218 11046503.608769 1417.778320
219 11015327.730185 1417.791016
220 11048899.561551 1417.803711
221 11032654.569983 1417.816406
222 11048610.320405 1417.829102
223 11034712.067454 1417.841797
224 11025525.423272 1417.854492
225 11034894.246206 1417.867188
226 11022234.118044 1417.879883
227 11013543.069140 1417.892578
228 11032099.399663 1417.905273
229 11099034.118044 1417.917969
230 11048258.913997 1417.930664
231 11060908.681282 1417.943359
232 11026564.964587 1417.956055
233 11057118.327150 1417.968750
234 11069916.600337 1417.981445
235 11048729.470489 1417.994141
236 11051266.158516 1418.006836
237 11046116.802698 1418.019531
238 11050008.175379 1418.032227
239 11054947.723440 1418.044922
240 11054201.740304 1418.057617
241 11052820.290051 1418.070312
242 11022535.446880 1418.083008
243 11072057.848229 1418.095703
244 11052502.556492 1418.108398
245 11050419.156830 1418.121094
246 11041464.768971 1418.133789
247 11034337.349073 1418.146484
248 11065599.568297 1418.159180
249 11020195.615514 1418.171875
250 11052674.374368 1418.184570
251 11041232.512648 1418.197266
252 11093415.932546 1418.209961
253 11050047.028668 1418.222656
254 11060961.349073 1418.235352
255 11048634.495784 1418.248047
256 11042202.118044 1418.260742
257 11039400.364250 1418.273438
258 11033385.011804 1418.286133
259 11039117.166948 1418.298828
260 11032607.082631 1418.311523
261 11034832.080944 1418.324219
262 11047954.131535 1418.336914
263 11044350.273187 1418.349609
264 11036182.448567 1418.362305
265 11049111.959528 1418.375000
266 11024861.463744 1418.387695
267 11028821.908938 1418.400391
268 11030267.251265 1418.413086
269 11029843.318718 1418.425781
270 11108965.881956 1418.438477
271 11054968.445194 1418.451172
272 11050535.716695 1418.463867
273 11038862.462057 1418.476562
274 11029601.564924 1418.489258
275 11015713.672850 1418.501953
276 11019913.281619 1418.514648
277 11024772.532884 1418.527344
278 11023732.128162 1418.540039
279 11023935.028668 1418.552734
280 11035267.237774 1418.565430
281 11008974.785835 1418.578125
282 11004102.583474 1418.590820
283 10998543.109612 1418.603516
284 11012804.856661 1418.616211
285 11008334.138280 1418.628906
286 11009664.647555 1418.641602
287 11008499.048904 1418.654297
288 10984859.844857 1418.666992
289 11001389.760540 1418.679688
290 11001410.482293 1418.692383
291 11004840.795953 1418.705078
292 10987176.364250 1418.717773
293 11009140.559865 1418.730469
294 11018040.553120 1418.743164
295 10975914.091062 1418.755859
296 11006884.478921 1418.768555
297 10988844.465430 1418.781250
298 10998590.596965 1418.793945
299 10960926.219224 1418.806641
300 10997069.274874 1418.819336
301 10960673.241147 1418.832031
302 10975807.028668 1418.844727
303 10973644.195616 1418.857422
304 10978999.042159 1418.870117
305 10974357.369309 1418.882812
306 10957154.860034 1418.895508
307 10983009.564924 1418.908203
308 10958576.890388 1418.920898
309 10972119.419899 1418.933594
310 10964762.333895 1418.946289
311 10955567.919056 1418.958984
312 10954133.801012 1418.971680
313 10998741.693086 1418.984375
314 11089383.824621 1418.997070
315 10984099.183811 1419.009766
316 10994812.330523 1419.022461
317 10928850.671164 1419.035156
318 10930933.207420 1419.047852
319 10962845.571669 1419.060547
320 10959757.166948 1419.073242
321 10960447.028668 1419.085938
322 10930258.023609 1419.098633
323 10942432.053963 1419.111328
324 10958992.188870 1419.124023
325 10933639.986509 1419.136719
326 10929667.453626 1419.149414
327 10946920.040472 1419.162109
328 10915878.853288 1419.174805
329 10937436.384486 1419.187500
330 10910928.080944 1419.200195
331 10929240.930860 1419.212891
332 10900063.838111 1419.225586
333 10932540.006745 1419.238281
334 10910422.988196 1419.250977
335 10906091.278246 1419.263672
336 10913872.296796 1419.276367
337 10933443.993255 1419.289062
338 10890385.052277 1419.301758
339 10916744.849916 1419.314453
340 10979590.475548 1419.327148
341 10886488.499157 1419.339844
342 10899001.848229 1419.352539
343 10869884.330523 1419.365234
344 10933445.720067 1419.377930
345 10884287.676223 1419.390625
346 10886180.263069 1419.403320
347 10895000.822934 1419.416016
348 10892375.204047 1419.428711
349 10906541.976391 1419.441406
350 10903581.355818 1419.454102
351 10897547.871838 1419.466797
352 10876757.045531 1419.479492
353 10886182.853288 1419.492188
354 10881155.237774 1419.504883
355 10862324.344013 1419.517578
356 10874926.623946 1419.530273
357 10852790.610455 1419.542969
358 10862724.964587 1419.555664
359 10862597.180438 1419.568359
360 10873138.509275 1419.581055
361 10878615.096121 1419.593750
362 10863131.629005 1419.606445
363 10869541.558179 1419.619141
364 10871092.236088 1419.631836
365 10845550.947723 1419.644531
366 10847928.768971 1419.657227
367 10863897.470489 1419.669922
368 10852669.733558 1419.682617
369 10860278.934233 1419.695312
370 10859077.935919 1419.708008
371 10854648.661046 1419.720703
372 10846114.752108 1419.733398
373 10847134.435076 1419.746094
374 10852074.846543 1419.758789
375 10847769.038786 1419.771484
376 10863670.394604 1419.784180
377 10872840.634064 1419.796875
378 10869883.467116 1419.809570
379 10882295.797639 1419.822266
380 10901483.278246 1419.834961
381 10921910.610455 1419.847656
382 11005207.743676 1419.860352
383 11010543.595278 1419.873047
384 11098595.507589 1419.885742
385 11224196.101180 1419.898438
386 11367990.394604 1419.911133
387 11606750.758853 1419.923828
388 11908618.360877 1419.936523
389 12300289.726813 1419.949219
390 12738484.020236 1419.961914
391 13209704.472175 1419.974609
392 13687239.878583 1419.987305
393 13991855.703204 1420.000000
394 14095777.888702 1420.012695
395 14093428.559865 1420.025391
396 14014051.291737 1420.038086
397 13938382.354132 1420.050781
398 13941955.129848 1420.063477
399 14124927.352445 1420.076172
400 14394956.843170 1420.088867
401 14705662.273187 1420.101562
402 14979899.143339 1420.114258
403 15097072.026981 1420.126953
404 15062635.925801 1420.139648
405 15035488.701518 1420.152344
406 14913684.505902 1420.165039
407 14918396.978078 1420.177734
408 15217603.561551 1420.190430
409 15515349.261383 1420.203125
410 15741989.989882 1420.215820
411 15875037.463744 1420.228516
412 15779287.419899 1420.241211
413 15490345.011804 1420.253906
414 15283018.684654 1420.266602
415 15077690.279933 1420.279297
416 14860830.219224 1420.291992
417 14912365.220911 1420.304688
418 15209352.849916 1420.317383
419 15441976.984823 1420.330078
420 15476300.843170 1420.342773
421 15289653.099494 1420.355469
422 14994658.212479 1420.368164
423 14412875.979764 1420.380859
424 13464379.143339 1420.393555
425 12759532.141653 1420.406250
426 12415690.900506 1420.418945
427 11813755.898820 1420.431641
428 11754173.949410 1420.444336
429 11779824.026981 1420.457031
430 11901180.114671 1420.469727
431 12025793.834739 1420.482422
432 12189342.866779 1420.495117
433 12373630.920742 1420.507812
434 12584521.389545 1420.520508
435 12769278.273187 1420.533203
436 12919782.097808 1420.545898
437 12960883.696459 1420.558594
438 12863672.768971 1420.571289
439 12678466.913997 1420.583984
440 12594401.349073 1420.596680
441 12540953.038786 1420.609375
442 12536023.851602 1420.622070
443 12469028.694772 1420.634766
444 12365457.915683 1420.647461
445 12227704.013491 1420.660156
446 11951146.306914 1420.672852
447 11675033.254637 1420.685547
448 11409459.804384 1420.698242
449 11263465.551433 1420.710938
450 11163094.556492 1420.723633
451 11088589.490725 1420.736328
452 11064969.281619 1420.749023
453 11066503.554806 1420.761719
454 11057337.632378 1420.774414
455 11051583.028668 1420.787109
456 11051409.483980 1420.799805
457 11028157.086003 1420.812500
458 11032849.699831 1420.825195
459 11050274.967960 1420.837891
460 11038625.025295 1420.850586
461 11062534.475548 1420.863281
462 11059869.139966 1420.875977
463 11051735.851602 1420.888672
464 11039962.441821 1420.901367
465 11055778.320405 1420.914062
466 11046014.920742 1420.926758
467 11041660.762226 1420.939453
468 11064509.086003 1420.952148
469 11053455.757167 1420.964844
470 11053028.370995 1420.977539
471 11050342.313659 1420.990234
472 11065921.618887 1421.002930
473 11085255.878583 1421.015625
474 11064797.463744 1421.028320
475 11060176.512648 1421.041016
476 11079973.558179 1421.053711
477 11085171.264755 1421.066406
478 11092619.871838 1421.079102
479 11082799.487352 1421.091797
480 11090145.349073 1421.104492
481 11079839.730185 1421.117188
482 11090881.834739 1421.129883
483 11110257.537943 1421.142578
484 11103465.983137 1421.155273
485 11122702.677909 1421.167969
486 11145688.283305 1421.180664
487 11123869.139966 1421.193359
488 11116951.527825 1421.206055
489 11140914.509275 1421.218750
490 11154861.976391 1421.231445
491 11151232.215852 1421.244141
492 11137314.967960 1421.256836
493 11147902.920742 1421.269531
494 11153598.812816 1421.282227
495 11164890.441821 1421.294922
496 11143444.290051 1421.307617
497 11201453.976391 1421.320312
498 11186258.023609 1421.333008
499 11191953.052277 1421.345703
500 11238059.817875 1421.358398
501 11175520.701518 1421.371094
502 11192263.878583 1421.383789
503 11196857.200675 1421.396484
504 11195747.723440 1421.409180
505 11204632.175379 1421.421875
506 11224195.237774 1421.434570
507 11191626.684654 1421.447266
508 11222703.271501 1421.459961
509 11206738.023609 1421.472656
510 11219358.435076 1421.485352
511 11229622.610455 1421.498047
512 11241230.246206 1421.510742
513 11226449.591906 1421.523438
514 11220123.413153 1421.536133
515 11223687.554806 1421.548828
516 11260635.305228 1421.561523
517 11239383.419899 1421.574219
518 11277738.522766 1421.586914
519 11266291.480607 1421.599609
520 11281477.935919 1421.612305
521 11260005.018550 1421.625000
522 11266290.617201 1421.637695
523 11289765.774030 1421.650391
524 11275062.826307 1421.663086
525 11300958.111298 1421.675781
526 11303193.470489 1421.688477
527 11306984.688027 1421.701172
528 11282621.949410 1421.713867
529 11284574.974705 1421.726562
530 11301126.475548 1421.739258
531 11313640.688027 1421.751953
532 11349112.013491 1421.764648
533 11338061.274874 1421.777344
534 11327003.629005 1421.790039
535 11322459.521079 1421.802734
536 11335515.089376 1421.815430
537 11363792.512648 1421.828125
538 11351141.018550 1421.840820
539 11374120.580101 1421.853516
540 11349731.075885 1421.866211
541 11335400.256324 1421.878906
542 11336931.075885 1421.891602
543 11365900.087690 1421.904297
544 11378120.741990 1421.916992
545 11357898.900506 1421.929688
546 11386167.689713 1421.942383
547 11412143.271501 1421.955078
548 11388077.544688 1421.967773
549 11416232.364250 1421.980469
550 11390109.139966 1421.993164
551 11404190.435076 1422.005859
552 11398822.637437 1422.018555
553 11474564.101180 1422.031250
554 11405282.644182 1422.043945
555 11410811.035413 1422.056641
556 11401250.536256 1422.069336
557 11417154.482293 1422.082031
558 11453837.166948 1422.094727
559 11450311.878583 1422.107422
560 11420130.644182 1422.120117
561 11411621.774030 1422.132812
562 11446074.279933 1422.145508
563 11424934.637437 1422.158203
564 11439945.821248 1422.170898
565 11427393.618887 1422.183594
566 11463352.768971 1422.196289
567 11489892.155143 1422.208984
568 11528574.489039 1422.221680
569 11612707.399663 1422.234375
570 11470759.932546 1422.247070
571 11459627.170320 1422.259766
572 11442138.873524 1422.272461
573 11448014.354132 1422.285156
574 11441561.254637 1422.297852
575 11441167.541315 1422.310547
576 11471755.440135 1422.323242
577 11455483.682968 1422.335938
578 11469988.910624 1422.348633
579 11456265.929174 1422.361328
580 11457172.505902 1422.374023
581 11459310.300169 1422.386719
582 11444946.671164 1422.399414
583 11457814.880270 1422.412109
584 11478136.013491 1422.424805
585 11469873.214165 1422.437500
586 11467130.172007 1422.450195
587 11470160.728499 1422.462891
588 11482918.421585 1422.475586
589 11478299.197302 1422.488281
590 11458927.811130 1422.500977
591 11465511.284992 1422.513672
592 11476837.450253 1422.526367
593 11484056.391231 1422.539062
594 11480518.151771 1422.551758
595 11479483.790894 1422.564453
596 11478219.763912 1422.577148
597 11476317.679595 1422.589844
598 11449491.642496 1422.602539
599 11476409.200675 1422.615234
600 11490057.065767 1422.627930
601 11483112.688027 1422.640625
602 11486287.433390 1422.653320
603 11458187.008432 1422.666016
604 11471075.075885 1422.678711
605 11488249.956155 1422.691406
606 11487404.681282 1422.704102
607 11458099.804384 1422.716797
608 11473323.386172 1422.729492
609 11482122.360877 1422.742188
610 11476740.748735 1422.754883
611 11479428.532884 1422.767578
612 11458657.564924 1422.780273
613 11475272.094435 1422.792969
614 11463504.728499 1422.805664
615 11466448.080944 1422.818359
616 11457719.905565 1422.831055
617 11468017.753794 1422.843750
618 11458180.964587 1422.856445
619 11460261.774030 1422.869141
620 11451074.266442 1422.881836
621 11433580.789207 1422.894531
622 11424934.637437 1422.907227
623 11447832.175379 1422.919922
624 11436976.566610 1422.932617
625 11440261.827993 1422.945312
626 11425216.107926 1422.958008
627 11418117.180438 1422.970703
628 11416060.546374 1422.983398
629 11428292.424958 1422.996094
630 11432648.310287 1423.008789
631 11439826.671164 1423.021484
632 11402949.720067 1423.034180
633 11391412.883642 1423.046875
634 11395246.408094 1423.059570
635 11407294.381113 1423.072266
636 11379758.623946 1423.084961
637 11384041.983137 1423.097656
638 11377494.772344 1423.110352
639 11376720.296796 1423.123047
640 11394414.947723 1423.135742
641 11368021.477234 1423.148438
642 11368740.694772 1423.161133
643 11364086.934233 1423.173828
644 11358030.138280 1423.186523
645 11340706.752108 1423.199219
646 11342472.418212 1423.211914
647 11316400.998314 1423.224609
648 11351751.446880 1423.237305
649 11323855.649241 1423.250000
650 11330354.509275 1423.262695
651 11306337.133221 1423.275391
652 11320957.193929 1423.288086
653 11304790.772344 1423.300781
654 11304294.313659 1423.313477
655 11308031.136594 1423.326172
656 11278045.895447 1423.338867
657 11281496.930860 1423.351562
658 11289182.111298 1423.364258
659 11277622.826307 1423.376953
660 11263614.057336 1423.389648
661 11244272.890388 1423.402344
662 11276219.790894 1423.415039
663 11231344.242833 1423.427734
664 11229919.622260 1423.440430
665 11249177.038786 1423.453125
666 11227292.276560 1423.465820
667 11223757.490725 1423.478516
668 11221595.521079 1423.491211
669 11204270.408094 1423.503906
670 11210909.139966 1423.516602
671 11217142.070826 1423.529297
672 11187712.000000 1423.541992
673 11170548.344013 1423.554688
674 11172992.647555 1423.567383
675 11177921.834739 1423.580078
676 11144233.443508 1423.592773
677 11146008.607083 1423.605469
678 11167799.258010 1423.618164
679 11150206.489039 1423.630859
680 11104193.834739 1423.643555
681 11120098.644182 1423.656250
682 11096101.989882 1423.668945
683 11094467.561551 1423.681641
684 11088781.166948 1423.694336
685 11110095.217538 1423.707031
686 11102245.126476 1423.719727
687 11081350.691400 1423.732422
688 11046560.593592 1423.745117
689 11062701.976391 1423.757812
690 11079475.372681 1423.770508
691 11055512.391231 1423.783203
692 11024432.350759 1423.795898
693 11019682.752108 1423.808594
694 11022276.424958 1423.821289
695 11007658.091062 1423.833984
696 10997157.342327 1423.846680
697 11000099.831366 1423.859375
698 11005098.954469 1423.872070
699 10977438.866779 1423.884766
700 10967445.801012 1423.897461
701 10950748.384486 1423.910156
702 10939404.087690 1423.922852
703 10943446.556492 1423.935547
704 10928367.163575 1423.948242
705 10942242.104553 1423.960938
706 10907550.435076 1423.973633
707 10900825.362563 1423.986328
708 10909468.924115 1423.999023
709 10879106.374368 1424.011719
710 10872060.114671 1424.024414
711 10863331.939292 1424.037109
712 10846992.836425 1424.049805
713 10855644.168634 1424.062500
714 10878274.050590 1424.075195
715 10857238.880270 1424.087891
716 10820695.204047 1424.100586
717 10818195.642496 1424.113281
718 10801901.436762 1424.125977
719 10801398.070826 1424.138672
720 10825052.816189 1424.151367
721 10775511.419899 1424.164062
722 10797334.880270 1424.176758
723 10780250.657673 1424.189453
724 10792544.701518 1424.202148
725 10746121.065767 1424.214844
726 10734129.214165 1424.227539
727 10709170.725126 1424.240234
728 10714440.957841 1424.252930
729 10711828.290051 1424.265625
730 10717063.123103 1424.278320
731 10687512.175379 1424.291016
732 10695757.706577 1424.303711
733 10663336.795953 1424.316406
734 10659789.059022 1424.329102
735 10670484.074199 1424.341797
736 10679333.126476 1424.354492
737 10624480.053963 1424.367188
738 10646859.548061 1424.379883
739 10632678.097808 1424.392578
740 10625940.937605 1424.405273
741 10617470.920742 1424.417969
742 10625527.365936 1424.430664
743 10588115.966273 1424.443359
744 10585401.416526 1424.456055
745 10570400.593592 1424.468750
746 10564407.689713 1424.481445
747 10567717.126476 1424.494141
748 10554944.755481 1424.506836
749 10530892.843170 1424.519531
750 10531358.219224 1424.532227
751 10533666.104553 1424.544922
752 10507257.092749 1424.557617
753 10521974.718381 1424.570312
754 10503369.173693 1424.583008
755 10508176.620573 1424.595703
756 10492766.543002 1424.608398
757 10476821.153457 1424.621094
758 10498711.096121 1424.633789
759 10437531.844857 1424.646484
760 10463908.047218 1424.659180
761 10410974.327150 1424.671875
762 10441853.193929 1424.684570
763 10414413.274874 1424.697266
764 10439661.868465 1424.709961
765 10419424.485666 1424.722656
766 10380623.001686 1424.735352
767 10401064.148398 1424.748047
768 10386477.760540 1424.760742
769 10372519.069140 1424.773438
770 10375091.156830 1424.786133
771 10356943.217538 1424.798828
772 10351239.554806 1424.811523
773 10360155.089376 1424.824219
774 10335952.944351 1424.836914
775 10339296.917369 1424.849609
776 10342727.231029 1424.862305
777 10300803.669477 1424.875000
778 10328874.738617 1424.887695
779 10311095.473862 1424.900391
780 10291247.487352 1424.913086
781 10287466.630691 1424.925781
782 10276457.335582 1424.938477
783 10302041.794266 1424.951172
784 10320601.578415 1424.963867
785 10333132.195616 1424.976562
786 10437975.635750 1424.989258
