Spectra obtained from the iBOB Roof spectometer + 3.8 m antenna
rspec_get_spec		Data acquisition program
104.000    		Total bandwidth = FPGA sample rate (MHz)
12.695     		Channel bandwidth in raw spectrum (kHz)
8192      		FFT length (number of channels)
80.000000  		Integration time per spectrum (sec)
260.000   		iBOB downconvert frequency (MHz)
1420.000  		Center Frequency = sum of local oscillator frequencies (MHz) 
9.991     		Output bandwidth (MHz)
787       		Number of output channels
-4.98926  		Frequency of first output sample (MHz)
4.98926   		Frequency of last output sample (MHz)
Spectrum: 0 MJD: 56981.8387 LST: 190052 RA(radians): 4.96931634 DEC(radians): 0.0631760708 RA(hhmmss): 18 58 53 DEC(ddmmss): 03 37 11 l(deg): 37 b(deg): 0 LocalDate: 14 11 20 LocalTime: 15 07 47 UTCDate: 14 11 20 UTC: 20 07 47
0 9698504.141533 1415.010742
1 9711119.959562 1415.023438
2 9736450.803707 1415.036133
3 9695953.199663 1415.048828
4 9708117.836563 1415.061523
5 9700207.069924 1415.074219
6 9741827.019377 1415.086914
7 9748234.999158 1415.099609
8 9725438.705981 1415.112305
9 9737673.219882 1415.125000
10 9712822.887953 1415.137695
11 9737846.618366 1415.150391
12 9746363.848357 1415.163086
13 9757785.718618 1415.175781
14 9769573.364785 1415.188477
15 9765052.926706 1415.201172
16 9788592.849200 1415.213867
17 9795994.635215 1415.226562
18 9768690.844145 1415.239258
19 9799354.770008 1415.251953
20 9791412.084246 1415.264648
21 9799213.290649 1415.277344
22 9818653.762426 1415.290039
23 9808465.523168 1415.302734
24 9826910.463353 1415.315430
25 9812817.738837 1415.328125
26 9809096.141533 1415.340820
27 9834746.176917 1415.353516
28 9840677.957877 1415.366211
29 9868735.730413 1415.378906
30 9854730.136479 1415.391602
31 9851395.019377 1415.404297
32 9876530.035383 1415.416992
33 9873286.362258 1415.429688
34 9879697.792755 1415.442383
35 10026100.461668 1415.455078
36 9922641.954507 1415.467773
37 9883011.342881 1415.480469
38 9915907.019377 1415.493164
39 9931274.783488 1415.505859
40 9914905.449031 1415.518555
41 9918635.673126 1415.531250
42 9916591.123842 1415.543945
43 9928134.631845 1415.556641
44 9927725.721988 1415.569336
45 9952830.544229 1415.582031
46 9968028.360573 1415.594727
47 9975641.502949 1415.607422
48 9974096.444819 1415.620117
49 9968189.681550 1415.632812
50 9985185.320977 1415.645508
51 9977592.020219 1415.658203
52 10004121.988206 1415.670898
53 10022677.351306 1415.683594
54 10057695.218197 1415.696289
55 10170530.183656 1415.708984
56 10044051.949452 1415.721680
57 10026084.933446 1415.734375
58 10029984.242628 1415.747070
59 10044296.950295 1415.759766
60 10051684.070767 1415.772461
61 10051822.962089 1415.785156
62 10067239.898905 1415.797852
63 10063766.753159 1415.810547
64 10064819.221567 1415.823242
65 10079023.231676 1415.835938
66 10085325.101938 1415.848633
67 10089690.257793 1415.861328
68 10121223.764111 1415.874023
69 10143061.620893 1415.886719
70 10109939.059815 1415.899414
71 10134054.389217 1415.912109
72 10112634.931761 1415.924805
73 10146145.698399 1415.937500
74 10138514.439764 1415.950195
75 10204314.419545 1415.962891
76 10175186.925021 1415.975586
77 10189907.679865 1415.988281
78 10186984.923336 1416.000977
79 10185989.391744 1416.013672
80 10211765.378265 1416.026367
81 10197997.021061 1416.039062
82 10226471.467565 1416.051758
83 10208432.849200 1416.064453
84 10208697.691660 1416.077148
85 10232178.089301 1416.089844
86 10229716.866049 1416.102539
87 10233446.227464 1416.115234
88 10238064.148273 1416.127930
89 10254116.879528 1416.140625
90 10249616.283067 1416.153320
91 10262262.294861 1416.166016
92 10281326.638585 1416.178711
93 10288750.854254 1416.191406
94 10287871.784330 1416.204102
95 10299925.998315 1416.216797
96 10312471.076664 1416.229492
97 10342207.622578 1416.242188
98 10313396.731255 1416.254883
99 10335273.408593 1416.267578
100 10338473.947767 1416.280273
101 10337153.186184 1416.292969
102 10341941.917439 1416.305664
103 10363852.239259 1416.318359
104 10348520.707666 1416.331055
105 10384790.321820 1416.343750
106 10368810.918281 1416.356445
107 10371893.270430 1416.369141
108 10392253.358045 1416.381836
109 10416695.642797 1416.394531
110 10414362.096040 1416.407227
111 10416507.578770 1416.419922
112 10439031.265375 1416.432617
113 10415001.341196 1416.445312
114 10440233.839933 1416.458008
115 10484082.089301 1416.470703
116 10446636.643639 1416.483398
117 10467407.366470 1416.496094
118 10454325.701769 1416.508789
119 10480821.162595 1416.521484
120 10483517.034541 1416.534180
121 10484613.499579 1416.546875
122 10470680.370682 1416.559570
123 10508212.084246 1416.572266
124 10510663.818029 1416.584961
125 10528703.299073 1416.597656
126 10501357.236731 1416.610352
127 10522529.105307 1416.623047
128 10547689.139006 1416.635742
129 10561723.201348 1416.648438
130 10591188.003370 1416.661133
131 10556029.519798 1416.673828
132 10588768.188711 1416.686523
133 10567566.126369 1416.699219
134 10593178.203875 1416.711914
135 10590876.576243 1416.724609
136 10610986.486942 1416.737305
137 10674741.054760 1416.750000
138 10626208.458298 1416.762695
139 10630768.579612 1416.775391
140 10620814.989048 1416.788086
141 10605439.460826 1416.800781
142 10638084.960404 1416.813477
143 10638595.666386 1416.826172
144 10656063.191238 1416.838867
145 10660371.410278 1416.851562
146 10664714.999158 1416.864258
147 10657314.938500 1416.876953
148 10665047.993260 1416.889648
149 10682837.297388 1416.902344
150 10671020.320135 1416.915039
151 10687984.903117 1416.927734
152 10702340.744735 1416.940430
153 10698053.229992 1416.953125
154 10707883.457456 1416.965820
155 10692125.762426 1416.978516
156 10720475.120472 1416.991211
157 10686395.848357 1417.003906
158 10697652.084246 1417.016602
159 10728645.553496 1417.029297
160 10752493.452401 1417.041992
161 10736044.751474 1417.054688
162 10748295.656276 1417.067383
163 10738923.511373 1417.080078
164 10751349.540017 1417.092773
165 10771649.240101 1417.105469
166 10783805.250211 1417.118164
167 10779867.983151 1417.130859
168 10780661.647852 1417.143555
169 10766973.519798 1417.156250
170 10789326.395956 1417.168945
171 10791755.700084 1417.181641
172 10799417.152485 1417.194336
173 10816424.869419 1417.207031
174 10806001.981466 1417.219727
175 10810698.406066 1417.232422
176 10830415.797810 1417.245117
177 10824308.030329 1417.257812
178 10819629.721988 1417.270508
179 10844599.103623 1417.283203
180 10844846.692502 1417.295898
181 10839894.052233 1417.308594
182 10845981.115417 1417.321289
183 10881699.477675 1417.333984
184 10842526.085931 1417.346680
185 10871009.159225 1417.359375
186 10876498.385847 1417.372070
187 10860738.965459 1417.384766
188 10868701.492839 1417.397461
189 10860226.534120 1417.410156
190 10881352.680708 1417.422852
191 10877232.525695 1417.435547
192 10890297.799495 1417.448242
193 10894349.802864 1417.460938
194 10928736.188711 1417.473633
195 10980717.775906 1417.486328
196 11068456.545914 1417.499023
197 11265653.755687 1417.511719
198 10955582.759899 1417.524414
199 10954466.453243 1417.537109
200 10929712.741365 1417.549805
201 10918650.608256 1417.562500
202 10932356.852570 1417.575195
203 10947573.647852 1417.587891
204 10922942.436394 1417.600586
205 10931045.580455 1417.613281
206 10951768.855939 1417.625977
207 10939033.125527 1417.638672
208 10984461.802864 1417.651367
209 10958303.649537 1417.664062
210 10935003.551811 1417.676758
211 10951088.202190 1417.689453
212 10957622.133109 1417.702148
213 10965459.572030 1417.714844
214 10966267.902275 1417.727539
215 10978536.060657 1417.740234
216 10994791.521483 1417.752930
217 10972040.950295 1417.765625
218 10979676.522325 1417.778320
219 10972744.896377 1417.791016
220 10964077.560236 1417.803711
221 10965702.847515 1417.816406
222 10986211.315922 1417.829102
223 10975553.779275 1417.841797
224 10991836.845830 1417.854492
225 10984903.494524 1417.867188
226 11010427.578770 1417.879883
227 10966526.705981 1417.892578
228 11010188.616681 1417.905273
229 11031310.449874 1417.917969
230 11004608.808762 1417.930664
231 10991240.734625 1417.943359
232 11001774.908172 1417.956055
233 10988231.710194 1417.968750
234 11000684.481887 1417.981445
235 10997973.944398 1417.994141
236 11004783.069924 1418.006836
237 11009865.112047 1418.019531
238 10993995.268745 1418.032227
239 10995010.641955 1418.044922
240 10999361.132266 1418.057617
241 11009545.920809 1418.070312
242 11013167.447346 1418.083008
243 11000478.301601 1418.095703
244 11004773.580455 1418.108398
245 11007054.503791 1418.121094
246 10993660.549284 1418.133789
247 11005238.564448 1418.146484
248 11012050.278012 1418.159180
249 11000444.657119 1418.171875
250 10989731.909014 1418.184570
251 10988477.573715 1418.197266
252 11009118.032013 1418.209961
253 10998701.182814 1418.222656
254 11017687.885425 1418.235352
255 11005834.675653 1418.248047
256 11011771.632687 1418.260742
257 11001264.202190 1418.273438
258 10980071.629318 1418.286133
259 10993672.626790 1418.298828
260 10994493.897220 1418.311523
261 10998643.383319 1418.324219
262 10993176.586352 1418.336914
263 10991936.053917 1418.349609
264 11002543.555181 1418.362305
265 10980446.894693 1418.375000
266 10991590.119629 1418.387695
267 11003664.175232 1418.400391
268 10999939.127211 1418.413086
269 11001545.435552 1418.425781
270 11032741.634372 1418.438477
271 11044553.435552 1418.451172
272 11000109.074979 1418.463867
273 10991231.245156 1418.476562
274 10989882.877843 1418.489258
275 10999327.487784 1418.501953
276 10969282.102780 1418.514648
277 10996836.070767 1418.527344
278 10986780.684078 1418.540039
279 11001265.927548 1418.552734
280 10973212.468408 1418.565430
281 10980379.605729 1418.578125
282 10974387.437237 1418.590820
283 10982236.953665 1418.603516
284 10980769.536647 1418.616211
285 10974791.171019 1418.628906
286 10974515.113732 1418.641602
287 10971536.283067 1418.654297
288 10964217.314238 1418.666992
289 10949649.253580 1418.679688
290 10969872.175232 1418.692383
291 10946680.775063 1418.705078
292 10956157.304128 1418.717773
293 10982098.925021 1418.730469
294 10968076.940185 1418.743164
295 10969094.901432 1418.755859
296 10954815.838248 1418.768555
297 10945335.858467 1418.781250
298 10943456.943555 1418.793945
299 10941291.619208 1418.806641
300 10945445.418703 1418.819336
301 10958264.828981 1418.832031
302 10934334.975569 1418.844727
303 10962922.433024 1418.857422
304 10936507.201348 1418.870117
305 10960556.104465 1418.882812
306 10948798.652064 1418.895508
307 10952218.311710 1418.908203
308 10946640.229149 1418.920898
309 10947936.835720 1418.933594
310 10934772.353833 1418.946289
311 10930122.513901 1418.958984
312 10927669.917439 1418.971680
313 10950261.755687 1418.984375
314 11018682.554339 1418.997070
315 10942164.650379 1419.009766
316 10969320.923336 1419.022461
317 10920744.330244 1419.035156
318 10929604.043808 1419.047852
319 10941396.866049 1419.060547
320 10925670.227464 1419.073242
321 10937532.926706 1419.085938
322 10920266.406066 1419.098633
323 10932303.366470 1419.111328
324 10937953.914069 1419.124023
325 10925845.351306 1419.136719
326 10909670.119629 1419.149414
327 10907101.061500 1419.162109
328 10918439.251896 1419.174805
329 10911151.339511 1419.187500
330 10910023.818029 1419.200195
331 10881805.587195 1419.212891
332 10907803.282224 1419.225586
333 10888343.831508 1419.238281
334 10885279.595619 1419.250977
335 10890642.008425 1419.263672
336 10912655.851727 1419.276367
337 10905999.420388 1419.289062
338 10895743.892165 1419.301758
339 10918339.181129 1419.314453
340 10998488.963774 1419.327148
341 10874093.236731 1419.339844
342 10873410.857624 1419.352539
343 10865512.168492 1419.365234
344 10881255.197978 1419.377930
345 10879627.322662 1419.390625
346 10876037.715249 1419.403320
347 10875571.868576 1419.416016
348 10875410.547599 1419.428711
349 10879824.013479 1419.441406
350 10883771.632687 1419.454102
351 10903249.199663 1419.466797
352 10848202.513901 1419.479492
353 10877693.196293 1419.492188
354 10873651.545072 1419.504883
355 10845418.648694 1419.517578
356 10851518.652064 1419.530273
357 10849213.573715 1419.542969
358 10862149.445661 1419.555664
359 10839650.776748 1419.568359
360 10836228.529065 1419.581055
361 10854825.300758 1419.593750
362 10865159.332772 1419.606445
363 10845240.074136 1419.619141
364 10854418.978939 1419.631836
365 10847227.686605 1419.644531
366 10834433.294019 1419.657227
367 10849890.776748 1419.669922
368 10833894.982308 1419.682617
369 10846143.299073 1419.695312
370 10851659.268745 1419.708008
371 10854868.434709 1419.720703
372 10848071.386689 1419.733398
373 10863749.715249 1419.746094
374 10851858.547599 1419.758789
375 10815536.310025 1419.771484
376 10849021.196293 1419.784180
377 10874666.055602 1419.796875
378 10857566.894693 1419.809570
379 10861669.796125 1419.822266
380 10878420.434709 1419.834961
381 10914146.561078 1419.847656
382 10978700.832350 1419.860352
383 11028368.714406 1419.873047
384 11116944.283067 1419.885742
385 11196200.330244 1419.898438
386 11380347.794440 1419.911133
387 11600728.640270 1419.923828
388 11887163.093513 1419.936523
389 12298158.908172 1419.949219
390 12764056.478517 1419.961914
391 13223446.860994 1419.974609
392 13680928.134794 1419.987305
393 13966267.848357 1420.000000
394 14094531.828138 1420.012695
395 14095140.879528 1420.025391
396 14017596.387532 1420.038086
397 13945678.288121 1420.050781
398 13937033.381634 1420.063477
399 14112655.851727 1420.076172
400 14440902.631845 1420.088867
401 14731598.719461 1420.101562
402 14977137.873631 1420.114258
403 15103915.457456 1420.126953
404 15092343.481045 1420.139648
405 15012823.454086 1420.152344
406 14949604.609941 1420.165039
407 14944145.577085 1420.177734
408 15202802.628475 1420.190430
409 15518343.009267 1420.203125
410 15751114.513901 1420.215820
411 15816414.139848 1420.228516
412 15790354.331929 1420.241211
413 15484472.505476 1420.253906
414 15289113.664701 1420.266602
415 15062284.293176 1420.279297
416 14830867.194608 1420.291992
417 14900041.974726 1420.304688
418 15205828.906487 1420.317383
419 15490190.342039 1420.330078
420 15455462.335299 1420.342773
421 15317437.142376 1420.355469
422 14983868.495366 1420.368164
423 14361695.757372 1420.380859
424 13444971.619208 1420.393555
425 12603821.614153 1420.406250
426 12125381.553496 1420.418945
427 11805275.875316 1420.431641
428 11775032.074136 1420.444336
429 11776668.576243 1420.457031
430 11887793.711879 1420.469727
431 11975461.742207 1420.482422
432 12236357.445661 1420.495117
433 12354402.129739 1420.507812
434 12596509.546757 1420.520508
435 12758009.098568 1420.533203
436 12919805.411963 1420.545898
437 12928700.495366 1420.558594
438 12842922.594777 1420.571289
439 12673249.159225 1420.583984
440 12549190.739680 1420.596680
441 12519084.104465 1420.609375
442 12509302.187026 1420.622070
443 12465100.239259 1420.634766
444 12385973.593934 1420.647461
445 12203793.900590 1420.660156
446 11932581.418703 1420.672852
447 11639300.744735 1420.685547
448 11389752.721146 1420.698242
449 11227722.621735 1420.710938
450 11118664.465038 1420.723633
451 11084507.551811 1420.736328
452 11059220.704297 1420.749023
453 11030766.099410 1420.761719
454 11017932.023589 1420.774414
455 11038963.275484 1420.787109
456 11007216.687447 1420.799805
457 11028161.671441 1420.812500
458 11029658.419545 1420.825195
459 11003754.756529 1420.837891
460 11015015.305813 1420.850586
461 11017970.844145 1420.863281
462 11047939.450716 1420.875977
463 11007028.623420 1420.888672
464 11025670.254423 1420.901367
465 11020359.602359 1420.914062
466 11023906.938500 1420.926758
467 11011573.216512 1420.939453
468 11042269.924179 1420.952148
469 11005964.940185 1420.964844
470 11034476.481887 1420.977539
471 11019042.291491 1420.990234
472 11030387.383319 1421.002930
473 11048618.379107 1421.015625
474 11046176.134794 1421.028320
475 11064901.445661 1421.041016
476 11072552.545914 1421.053711
477 11068616.141533 1421.066406
478 11064216.478517 1421.079102
479 11067859.572030 1421.091797
480 11086405.445661 1421.104492
481 11066640.606571 1421.117188
482 11080398.611626 1421.129883
483 11089644.805392 1421.142578
484 11092452.825611 1421.155273
485 11103454.571188 1421.167969
486 11110596.690817 1421.180664
487 11085131.268745 1421.193359
488 11088848.552654 1421.206055
489 11101634.318450 1421.218750
490 11131541.674810 1421.231445
491 11103883.322662 1421.244141
492 11108904.114575 1421.256836
493 11138238.652064 1421.269531
494 11128450.695872 1421.282227
495 11154471.683235 1421.294922
496 11144735.487784 1421.307617
497 11159901.385004 1421.320312
498 11165813.324347 1421.333008
499 11157364.245998 1421.345703
500 11165770.190396 1421.358398
501 11175540.893008 1421.371094
502 11162066.709351 1421.383789
503 11146728.276327 1421.396484
504 11172477.519798 1421.409180
505 11164310.537489 1421.421875
506 11164615.063184 1421.434570
507 11164703.056445 1421.447266
508 11219527.171019 1421.459961
509 11195646.490312 1421.472656
510 11210100.677338 1421.485352
511 11196513.482730 1421.498047
512 11218123.592249 1421.510742
513 11191915.403538 1421.523438
514 11211104.835720 1421.536133
515 11222517.216512 1421.548828
516 11248118.941870 1421.561523
517 11238073.044650 1421.574219
518 11228490.406066 1421.586914
519 11233083.309183 1421.599609
520 11266736.417860 1421.612305
521 11240544.620051 1421.625000
522 11235692.050548 1421.637695
523 11244577.644482 1421.650391
524 11286306.291491 1421.663086
525 11235925.836563 1421.675781
526 11242266.527380 1421.688477
527 11271033.422072 1421.701172
528 11288973.695029 1421.713867
529 11282214.604886 1421.726562
530 11267882.055602 1421.739258
531 11298442.459983 1421.751953
532 11324958.625105 1421.764648
533 11286037.135636 1421.777344
534 11317012.488627 1421.790039
535 11316399.986521 1421.802734
536 11326005.054760 1421.815430
537 11312968.249368 1421.828125
538 11346523.012637 1421.840820
539 11321399.211457 1421.853516
540 11321036.886268 1421.866211
541 11309324.293176 1421.878906
542 11318350.503791 1421.891602
543 11380534.995788 1421.904297
544 11337503.703454 1421.916992
545 11343192.208930 1421.929688
546 11328502.510531 1421.942383
547 11367135.002527 1421.955078
548 11392107.834878 1421.967773
549 11388943.528222 1421.980469
550 11361521.550126 1421.993164
551 11375347.706824 1422.005859
552 11404112.013479 1422.018555
553 11861450.945240 1422.031250
554 11476862.598147 1422.043945
555 11411802.796967 1422.056641
556 11392267.430497 1422.069336
557 11378310.146588 1422.082031
558 11427506.143218 1422.094727
559 11401098.675653 1422.107422
560 11388779.619208 1422.120117
561 11387807.379949 1422.132812
562 11407663.663016 1422.145508
563 11407366.901432 1422.158203
564 11407592.923336 1422.170898
565 11376448.485257 1422.183594
566 11394524.198821 1422.196289
567 11429800.869419 1422.208984
568 11407442.817186 1422.221680
569 11436911.932603 1422.234375
570 11407724.050548 1422.247070
571 11398162.978939 1422.259766
572 11432451.019377 1422.272461
573 11405010.925021 1422.285156
574 11414269.196293 1422.297852
575 11423931.201348 1422.310547
576 11411416.316765 1422.323242
577 11423723.295703 1422.335938
578 11449018.770008 1422.348633
579 11438441.462511 1422.361328
580 11431353.691660 1422.374023
581 11447693.695029 1422.386719
582 11417518.908172 1422.399414
583 11442125.964617 1422.412109
584 11424609.267060 1422.424805
585 11444110.126369 1422.437500
586 11450091.080034 1422.450195
587 11433345.617523 1422.462891
588 11437067.214827 1422.475586
589 11453590.968829 1422.488281
590 11422644.946925 1422.500977
591 11452441.880371 1422.513672
592 11445631.029486 1422.526367
593 11449720.990733 1422.539062
594 11421358.692502 1422.551758
595 11431393.374895 1422.564453
596 11446301.331087 1422.577148
597 11451752.599832 1422.589844
598 11457573.957877 1422.602539
599 11457290.136479 1422.615234
600 11443375.123842 1422.627930
601 11455357.735468 1422.640625
602 11455182.611626 1422.653320
603 11440934.604886 1422.666016
604 11443776.269587 1422.678711
605 11443073.186184 1422.691406
606 11450195.464195 1422.704102
607 11457624.855939 1422.716797
608 11454066.304971 1422.729492
609 11417740.616681 1422.742188
610 11434075.443976 1422.754883
611 11429938.898062 1422.767578
612 11413329.738837 1422.780273
613 11428198.011794 1422.792969
614 11425986.965459 1422.805664
615 11424750.746420 1422.818359
616 11409764.286436 1422.831055
617 11423151.339511 1422.843750
618 11434214.335299 1422.856445
619 11410214.604886 1422.869141
620 11423628.401011 1422.881836
621 11406078.921651 1422.894531
622 11413428.084246 1422.907227
623 11419989.620893 1422.919922
624 11401664.593092 1422.932617
625 11418600.707666 1422.945312
626 11397584.983993 1422.958008
627 11401799.171019 1422.970703
628 11411575.049705 1422.983398
629 11419473.738837 1422.996094
630 11371473.415333 1423.008789
631 11412275.545072 1423.021484
632 11396070.119629 1423.034180
633 11362135.777591 1423.046875
634 11362058.136479 1423.059570
635 11361145.422072 1423.072266
636 11372675.989890 1423.084961
637 11354187.915754 1423.097656
638 11361045.351306 1423.110352
639 11344950.348778 1423.123047
640 11378853.634372 1423.135742
641 11346877.573715 1423.148438
642 11336650.513901 1423.161133
643 11301291.026116 1423.173828
644 11335422.058972 1423.186523
645 11328967.494524 1423.199219
646 11304245.701769 1423.211914
647 11308528.903117 1423.224609
648 11301548.104465 1423.237305
649 11308132.070767 1423.250000
650 11274407.359730 1423.262695
651 11297221.769166 1423.275391
652 11274197.728728 1423.288086
653 11282067.949452 1423.300781
654 11256340.272957 1423.313477
655 11281479.602359 1423.326172
656 11274210.668913 1423.338867
657 11250494.759899 1423.351562
658 11240799.973041 1423.364258
659 11243230.139848 1423.376953
660 11239772.522325 1423.389648
661 11226637.371525 1423.402344
662 11195331.612468 1423.415039
663 11209798.739680 1423.427734
664 11227516.441449 1423.440430
665 11224480.673968 1423.453125
666 11188841.678180 1423.465820
667 11211801.880371 1423.478516
668 11178147.046335 1423.491211
669 11179125.324347 1423.503906
670 11162360.882898 1423.516602
671 11192266.513901 1423.529297
672 11138930.520640 1423.541992
673 11150004.731255 1423.554688
674 11164130.237574 1423.567383
675 11145482.567818 1423.580078
676 11155022.935131 1423.592773
677 11133382.631845 1423.605469
678 11106558.490312 1423.618164
679 11116626.817186 1423.630859
680 11096877.506318 1423.643555
681 11087287.103623 1423.656250
682 11075347.625948 1423.668945
683 11083094.483572 1423.681641
684 11068327.144061 1423.694336
685 11076601.961247 1423.707031
686 11087938.426285 1423.719727
687 11079111.494524 1423.732422
688 11049580.266217 1423.745117
689 11015718.389217 1423.757812
690 11036754.817186 1423.770508
691 11011618.938500 1423.783203
692 11005365.378265 1423.795898
693 11003987.679865 1423.808594
694 10991898.958719 1423.821289
695 10973984.566133 1423.833984
696 10999252.434709 1423.846680
697 10980852.353833 1423.859375
698 10989571.450716 1423.872070
699 10966170.419545 1423.884766
700 10947100.899747 1423.897461
701 10911298.857624 1423.910156
702 10937802.945240 1423.922852
703 10910456.020219 1423.935547
704 10913647.069924 1423.948242
705 10916710.443134 1423.960938
706 10898802.951980 1423.973633
707 10903387.228307 1423.986328
708 10892093.897220 1423.999023
709 10884655.016007 1424.011719
710 10868653.182814 1424.024414
711 10849077.270430 1424.037109
712 10826007.508003 1424.049805
713 10850677.540017 1424.062500
714 10831843.531592 1424.075195
715 10827532.724516 1424.087891
716 10810496.539174 1424.100586
717 10819332.097725 1424.113281
718 10791383.885425 1424.125977
719 10790986.190396 1424.138672
720 10788429.209773 1424.151367
721 10783913.947767 1424.164062
722 10779882.648694 1424.176758
723 10745711.932603 1424.189453
724 10771044.502106 1424.202148
725 10742202.554339 1424.214844
726 10706896.552654 1424.227539
727 10748356.906487 1424.240234
728 10715809.752317 1424.252930
729 10704082.493682 1424.265625
730 10688476.630160 1424.278320
731 10705044.380792 1424.291016
732 10673189.095198 1424.303711
733 10665456.040438 1424.316406
734 10658903.130581 1424.329102
735 10658128.444819 1424.341797
736 10642513.954507 1424.354492
737 10640767.892165 1424.367188
738 10615683.774221 1424.379883
739 10624923.929233 1424.392578
740 10620779.619208 1424.405273
741 10609355.160910 1424.417969
742 10606794.729570 1424.430664
743 10583290.176917 1424.443359
744 10575884.077506 1424.456055
745 10565755.363100 1424.468750
746 10547426.884583 1424.481445
747 10553904.741365 1424.494141
748 10562376.249368 1424.506836
749 10514770.170177 1424.519531
750 10516450.668913 1424.532227
751 10509225.732098 1424.544922
752 10494870.753159 1424.557617
753 10493348.987363 1424.570312
754 10477077.135636 1424.583008
755 10486944.458298 1424.595703
756 10450437.607414 1424.608398
757 10469115.470935 1424.621094
758 10477159.952822 1424.633789
759 10449776.795282 1424.646484
760 10436713.246841 1424.659180
761 10439261.600674 1424.671875
762 10428902.550969 1424.684570
763 10418886.847515 1424.697266
764 10402809.098568 1424.709961
765 10398619.066554 1424.722656
766 10395828.299916 1424.735352
767 10380599.427127 1424.748047
768 10401009.550126 1424.760742
769 10361960.384162 1424.773438
770 10374791.009267 1424.786133
771 10344510.112890 1424.798828
772 10366692.178602 1424.811523
773 10329918.759899 1424.824219
774 10334807.561921 1424.836914
775 10337195.457456 1424.849609
776 10321378.237574 1424.862305
777 10323119.123842 1424.875000
778 10326222.180286 1424.887695
779 10307462.362258 1424.900391
780 10269551.932603 1424.913086
781 10296611.585510 1424.925781
782 10278032.930076 1424.938477
783 10298708.758214 1424.951172
784 10329821.277169 1424.963867
785 10332099.612468 1424.976562
786 10490697.974726 1424.989258
