Spectra obtained from the iBOB Roof spectometer + 3.8 m antenna
rspec_get_spec		Data acquisition program
104.000    		Total bandwidth = FPGA sample rate (MHz)
12.695     		Channel bandwidth in raw spectrum (kHz)
8192      		FFT length (number of channels)
80.000000  		Integration time per spectrum (sec)
260.000   		iBOB downconvert frequency (MHz)
1420.000  		Center Frequency = sum of local oscillator frequencies (MHz) 
9.991     		Output bandwidth (MHz)
787       		Number of output channels
-4.98926  		Frequency of first output sample (MHz)
4.98926   		Frequency of last output sample (MHz)
Spectrum: 0 MJD: 56981.8242 LST: 183955 RA(radians): 4.79027449 DEC(radians): -0.246033246 RA(hhmmss): 18 17 51 DEC(ddmmss): -14 05 48 l(deg): 15 b(deg): 0 LocalDate: 14 11 20 LocalTime: 14 46 53 UTCDate: 14 11 20 UTC: 19 46 53
0 9895769.362563 1415.010742
1 9936366.731872 1415.023438
2 10015067.952782 1415.036133
3 9906614.610455 1415.048828
4 9933174.718381 1415.061523
5 9930040.553120 1415.074219
6 9973137.483980 1415.086914
7 10037242.819562 1415.099609
8 9930933.315346 1415.112305
9 9968846.354132 1415.125000
10 9978678.826307 1415.137695
11 9963315.372681 1415.150391
12 9974423.959528 1415.163086
13 9988470.718381 1415.175781
14 9990269.193929 1415.188477
15 9996062.650927 1415.201172
16 10044392.688027 1415.213867
17 10012888.715008 1415.226562
18 10016531.426644 1415.239258
19 10034983.284992 1415.251953
20 10025911.473862 1415.264648
21 10046827.494098 1415.277344
22 10071911.177066 1415.290039
23 10050813.841484 1415.302734
24 10038430.003373 1415.315430
25 10043072.539629 1415.328125
26 10075344.080944 1415.340820
27 10067884.249578 1415.353516
28 10070791.338954 1415.366211
29 10101644.303541 1415.378906
30 10078818.428331 1415.391602
31 10107029.369309 1415.404297
32 10125267.966273 1415.416992
33 10101741.005059 1415.429688
34 10123020.519393 1415.442383
35 10180127.082631 1415.455078
36 10125255.015177 1415.467773
37 10142188.141653 1415.480469
38 10142675.966273 1415.493164
39 10179075.453626 1415.505859
40 10152985.038786 1415.518555
41 10163904.539629 1415.531250
42 10156257.349073 1415.543945
43 10183672.229342 1415.556641
44 10201643.170320 1415.569336
45 10183519.406408 1415.582031
46 10215683.021922 1415.594727
47 10236883.966273 1415.607422
48 10219186.725126 1415.620117
49 10243225.686341 1415.632812
50 10241246.758853 1415.645508
51 10248970.792580 1415.658203
52 10305678.462057 1415.670898
53 10303674.495784 1415.683594
54 10287818.037099 1415.696289
55 10257075.588533 1415.708984
56 10303755.655987 1415.721680
57 10271278.623946 1415.734375
58 10307628.897133 1415.747070
59 10302358.664418 1415.759766
60 10301156.802698 1415.772461
61 10314410.954469 1415.785156
62 10333199.541315 1415.797852
63 10352681.443508 1415.810547
64 10326897.537943 1415.823242
65 10327389.679595 1415.835938
66 10348173.598651 1415.848633
67 10358568.148398 1415.861328
68 10385059.183811 1415.874023
69 10410835.318718 1415.886719
70 10397746.940978 1415.899414
71 10381859.399663 1415.912109
72 10390115.291737 1415.924805
73 10379430.637437 1415.937500
74 10410601.335582 1415.950195
75 10461177.956155 1415.962891
76 10431061.477234 1415.975586
77 10446019.993255 1415.988281
78 10469532.276560 1416.000977
79 10450934.502530 1416.013672
80 10471259.952782 1416.026367
81 10476746.900506 1416.039062
82 10480002.806071 1416.051758
83 10481467.143339 1416.064453
84 10486837.531197 1416.077148
85 10497908.128162 1416.089844
86 10512230.313659 1416.102539
87 10503523.723440 1416.115234
88 10501911.743676 1416.127930
89 10545891.939292 1416.140625
90 10536301.220911 1416.153320
91 10525832.418212 1416.166016
92 10567838.003373 1416.178711
93 10568028.816189 1416.191406
94 10579352.391231 1416.204102
95 10575607.797639 1416.216797
96 10606509.112985 1416.229492
97 10590104.391231 1416.242188
98 10622631.500843 1416.254883
99 10620959.946037 1416.267578
100 10625091.345700 1416.280273
101 10628938.684654 1416.292969
102 10622673.807757 1416.305664
103 10655194.010118 1416.318359
104 10633500.924115 1416.331055
105 10669633.618887 1416.343750
106 10655136.161889 1416.356445
107 10669882.279933 1416.369141
108 10685366.610455 1416.381836
109 10667589.935919 1416.394531
110 10697350.691400 1416.407227
111 10689208.768971 1416.419922
112 10721697.025295 1416.432617
113 10730116.101180 1416.445312
114 10712202.145025 1416.458008
115 10806404.964587 1416.470703
116 10733621.531197 1416.483398
117 10772286.596965 1416.496094
118 10731174.637437 1416.508789
119 10745369.038786 1416.521484
120 10740369.915683 1416.534180
121 10750011.575042 1416.546875
122 10775994.064081 1416.559570
123 10780156.546374 1416.572266
124 10818941.625632 1416.584961
125 10791098.495784 1416.597656
126 10783779.399663 1416.610352
127 10793718.070826 1416.623047
128 10819821.436762 1416.635742
129 10837219.939292 1416.648438
130 10866274.428331 1416.661133
131 10866153.551433 1416.673828
132 10856717.382799 1416.686523
133 10866465.241147 1416.699219
134 10853920.809444 1416.711914
135 10886200.984823 1416.724609
136 10911171.561551 1416.737305
137 10968224.593592 1416.750000
138 10915694.947723 1416.762695
139 10895198.543002 1416.775391
140 10924771.939292 1416.788086
141 10892141.220911 1416.800781
142 10954185.605396 1416.813477
143 10914971.413153 1416.826172
144 10945114.657673 1416.838867
145 10936396.843170 1416.851562
146 10949012.937605 1416.864258
147 10979404.843170 1416.876953
148 10940283.035413 1416.889648
149 10964991.136594 1416.902344
150 10974338.374368 1416.915039
151 10971866.441821 1416.927734
152 11000806.097808 1416.940430
153 10970743.150084 1416.953125
154 10972859.359191 1416.965820
155 10981270.664418 1416.978516
156 11023768.391231 1416.991211
157 11005015.204047 1417.003906
158 10999196.708263 1417.016602
159 11046434.536256 1417.029297
160 11007135.730185 1417.041992
161 11035315.588533 1417.054688
162 11028343.581788 1417.067383
163 11050602.198988 1417.080078
164 11066458.657673 1417.092773
165 11085295.595278 1417.105469
166 11073251.075885 1417.118164
167 11094345.821248 1417.130859
168 11067598.354132 1417.143555
169 11057013.854975 1417.156250
170 11073926.259696 1417.168945
171 11118237.139966 1417.181641
172 11102701.005059 1417.194336
173 11126991.217538 1417.207031
174 11111303.986509 1417.219727
175 11124644.478921 1417.232422
176 11134479.541315 1417.245117
177 11116284.978078 1417.257812
178 11136188.222597 1417.270508
179 11151080.256324 1417.283203
180 11153597.949410 1417.295898
181 11144311.150084 1417.308594
182 11147959.042159 1417.321289
183 11185937.699831 1417.333984
184 11193051.305228 1417.346680
185 11179203.129848 1417.359375
186 11187546.225970 1417.372070
187 11220599.150084 1417.384766
188 11172083.480607 1417.397461
189 11175355.790894 1417.410156
190 11198014.165261 1417.422852
191 11181226.091062 1417.435547
192 11201463.473862 1417.448242
193 11198288.728499 1417.460938
194 11253903.325464 1417.473633
195 11281595.359191 1417.486328
196 11299093.153457 1417.499023
197 11449348.317032 1417.511719
198 11258905.902192 1417.524414
199 11272278.340641 1417.537109
200 11230034.455312 1417.549805
201 11240776.957841 1417.562500
202 11282940.546374 1417.575195
203 11248720.296796 1417.587891
204 11270919.338954 1417.600586
205 11255561.065767 1417.613281
206 11272181.639123 1417.625977
207 11271309.598651 1417.638672
208 11296641.942664 1417.651367
209 11289849.524452 1417.664062
210 11274183.878583 1417.676758
211 11280477.247892 1417.689453
212 11274407.500843 1417.702148
213 11297172.074199 1417.714844
214 11273941.261383 1417.727539
215 11267542.556492 1417.740234
216 11291545.254637 1417.752930
217 11270339.129848 1417.765625
218 11326640.998314 1417.778320
219 11273158.151771 1417.791016
220 11333719.204047 1417.803711
221 11284874.576728 1417.816406
222 11313771.062395 1417.829102
223 11299725.166948 1417.841797
224 11285817.416526 1417.854492
225 11314242.482293 1417.867188
226 11293634.698145 1417.879883
227 11301792.161889 1417.892578
228 11282315.440135 1417.905273
229 11333331.534570 1417.917969
230 11311958.772344 1417.930664
231 11342373.126476 1417.943359
232 11361956.047218 1417.956055
233 11309169.106239 1417.968750
234 11343579.305228 1417.981445
235 11323191.689713 1417.994141
236 11322576.944351 1418.006836
237 11292352.539629 1418.019531
238 11330214.637437 1418.032227
239 11337766.853288 1418.044922
240 11311933.733558 1418.057617
241 11366758.313659 1418.070312
242 11330420.991568 1418.083008
243 11313485.274874 1418.095703
244 11323241.767285 1418.108398
245 11316015.055649 1418.121094
246 11319361.618887 1418.133789
247 11340983.905565 1418.146484
248 11360660.074199 1418.159180
249 11304410.010118 1418.171875
250 11345416.634064 1418.184570
251 11327750.475548 1418.197266
252 11322710.772344 1418.209961
253 11334305.456998 1418.222656
254 11314902.124789 1418.235352
255 11354257.915683 1418.248047
256 11304901.288364 1418.260742
257 11329186.320405 1418.273438
258 11326822.313659 1418.286133
259 11323113.119730 1418.298828
260 11352542.327150 1418.311523
261 11330768.080944 1418.324219
262 11349225.119730 1418.336914
263 11300490.145025 1418.349609
264 11323049.227656 1418.362305
265 11305791.460371 1418.375000
266 11321995.008432 1418.387695
267 11300331.278246 1418.400391
268 11307897.308600 1418.413086
269 11328705.403035 1418.425781
270 11347873.025295 1418.438477
271 11349143.096121 1418.451172
272 11335080.795953 1418.463867
273 11327269.558179 1418.476562
274 11283121.861720 1418.489258
275 11288942.084317 1418.501953
276 11316109.166948 1418.514648
277 11304642.266442 1418.527344
278 11310509.112985 1418.540039
279 11296749.005059 1418.552734
280 11331369.011804 1418.565430
281 11333517.166948 1418.578125
282 11308975.703204 1418.590820
283 11286509.868465 1418.603516
284 11325130.900506 1418.616211
285 11307678.003373 1418.628906
286 11326123.817875 1418.641602
287 11311417.416526 1418.654297
288 11318904.013491 1418.666992
289 11296279.311973 1418.679688
290 11284034.482293 1418.692383
291 11273278.165261 1418.705078
292 11282274.860034 1418.717773
293 11283419.736931 1418.730469
294 11295301.935919 1418.743164
295 11289607.770658 1418.755859
296 11281387.278246 1418.768555
297 11280573.949410 1418.781250
298 11278685.679595 1418.793945
299 11295172.424958 1418.806641
300 11276935.554806 1418.819336
301 11270336.539629 1418.832031
302 11292214.394604 1418.844727
303 11285026.536256 1418.857422
304 11257392.350759 1418.870117
305 11263531.170320 1418.882812
306 11271990.826307 1418.895508
307 11287073.672850 1418.908203
308 11277138.455312 1418.920898
309 11266552.229342 1418.933594
310 11260360.741990 1418.946289
311 11261435.682968 1418.958984
312 11252448.485666 1418.971680
313 11321640.148398 1418.984375
314 11352939.494098 1418.997070
315 11239670.070826 1419.009766
316 11287594.306914 1419.022461
317 11238122.846543 1419.035156
318 11234171.898820 1419.047852
319 11281114.441821 1419.060547
320 11248661.585160 1419.073242
321 11255266.644182 1419.085938
322 11221769.929174 1419.098633
323 11231688.741990 1419.111328
324 11214837.639123 1419.124023
325 11260984.984823 1419.136719
326 11236849.322091 1419.149414
327 11228027.898820 1419.162109
328 11217709.328836 1419.174805
329 11244781.436762 1419.187500
330 11215158.826307 1419.200195
331 11214110.650927 1419.212891
332 11211415.959528 1419.225586
333 11193019.359191 1419.238281
334 11237173.099494 1419.250977
335 11225983.352445 1419.263672
336 11213766.151771 1419.276367
337 11234129.591906 1419.289062
338 11181816.661046 1419.301758
339 11208348.276560 1419.314453
340 11214734.030354 1419.327148
341 11187725.814503 1419.339844
342 11191365.072513 1419.352539
343 11190928.188870 1419.365234
344 11219143.446880 1419.377930
345 11200595.750422 1419.390625
346 11180600.121417 1419.403320
347 11170895.433390 1419.416016
348 11180242.671164 1419.428711
349 11192865.672850 1419.441406
350 11184044.249578 1419.454102
351 11216617.983137 1419.466797
352 11192777.605396 1419.479492
353 11188400.134907 1419.492188
354 11179779.885329 1419.504883
355 11169711.703204 1419.517578
356 11175139.075885 1419.530273
357 11170751.244519 1419.542969
358 11183812.856661 1419.555664
359 11160075.224283 1419.568359
360 11187679.190556 1419.581055
361 11189336.930860 1419.593750
362 11194614.070826 1419.606445
363 11165089.025295 1419.619141
364 11185697.672850 1419.631836
365 11223030.502530 1419.644531
366 11265049.902192 1419.657227
367 11272078.030354 1419.669922
368 11300851.048904 1419.682617
369 11342862.677909 1419.695312
370 11396297.173693 1419.708008
371 11422711.365936 1419.720703
372 11517312.215852 1419.733398
373 11575179.440135 1419.746094
374 11644952.175379 1419.758789
375 11668173.490725 1419.771484
376 11714656.701518 1419.784180
377 11721013.099494 1419.796875
378 11652725.423272 1419.809570
379 11651288.715008 1419.822266
380 11650897.591906 1419.834961
381 11669379.669477 1419.847656
382 11631236.964587 1419.860352
383 11565775.217538 1419.873047
384 11621265.483980 1419.885742
385 11596641.996627 1419.898438
386 11607401.767285 1419.911133
387 11668804.640809 1419.923828
388 11721590.718381 1419.936523
389 11720591.757167 1419.949219
390 11728575.676223 1419.961914
391 11731424.917369 1419.974609
392 11754508.951096 1419.987305
393 11862749.032040 1420.000000
394 11884733.949410 1420.012695
395 11948038.907251 1420.025391
396 12052973.005059 1420.038086
397 12196165.504216 1420.050781
398 12390861.922428 1420.063477
399 12603221.908938 1420.076172
400 12891628.141653 1420.088867
401 13088096.269815 1420.101562
402 13249333.099494 1420.114258
403 13380543.244519 1420.126953
404 13473791.136594 1420.139648
405 13658052.424958 1420.152344
406 13782914.806071 1420.165039
407 14019344.836425 1420.177734
408 14217324.789207 1420.190430
409 14452211.048904 1420.203125
410 14716406.502530 1420.215820
411 15043528.741990 1420.228516
412 15498221.005059 1420.241211
413 15932873.605396 1420.253906
414 16423321.254637 1420.266602
415 16731581.517707 1420.279297
416 16822430.866779 1420.291992
417 16769597.301855 1420.304688
418 16581661.355818 1420.317383
419 16144159.514334 1420.330078
420 15949079.743676 1420.342773
421 15775080.903879 1420.355469
422 15860110.893761 1420.368164
423 15773967.109612 1420.380859
424 15030128.674536 1420.393555
425 14997486.731872 1420.406250
426 15306052.640809 1420.418945
427 13887428.424958 1420.431641
428 13683156.829680 1420.444336
429 13659488.269815 1420.457031
430 13792176.566610 1420.469727
431 13962083.723440 1420.482422
432 13979595.332209 1420.495117
433 13768654.785835 1420.507812
434 13381600.053963 1420.520508
435 12977990.367622 1420.533203
436 12589246.812816 1420.545898
437 12249202.833052 1420.558594
438 11971358.650927 1420.571289
439 11706468.155143 1420.583984
440 11558405.180438 1420.596680
441 11455151.271501 1420.609375
442 11442342.637437 1420.622070
443 11352008.741990 1420.634766
444 11355686.853288 1420.647461
445 11365507.237774 1420.660156
446 11360407.959528 1420.672852
447 11337552.728499 1420.685547
448 11326534.799325 1420.698242
449 11334429.787521 1420.710938
450 11324229.504216 1420.723633
451 11325216.377740 1420.736328
452 11313030.259696 1420.749023
453 11321204.991568 1420.761719
454 11332235.871838 1420.774414
455 11314324.505902 1420.787109
456 11308607.028668 1420.799805
457 11315586.806071 1420.812500
458 11318360.067454 1420.825195
459 11358059.494098 1420.837891
460 11325089.456998 1420.850586
461 11332961.996627 1420.863281
462 11340623.001686 1420.875977
463 11345362.239460 1420.888672
464 11348587.062395 1420.901367
465 11376784.188870 1420.914062
466 11347152.944351 1420.926758
467 11347627.817875 1420.939453
468 11343525.774030 1420.952148
469 11367392.053963 1420.964844
470 11385936.296796 1420.977539
471 11345528.013491 1420.990234
472 11356161.726813 1421.002930
473 11356888.715008 1421.015625
474 11376477.679595 1421.028320
475 11374523.790894 1421.041016
476 11387915.224283 1421.053711
477 11417613.814503 1421.066406
478 11383435.871838 1421.079102
479 11381818.711636 1421.091797
480 11401431.851602 1421.104492
481 11377723.575042 1421.117188
482 11399310.462057 1421.129883
483 11425812.721754 1421.142578
484 11426064.836425 1421.155273
485 11436148.559865 1421.167969
486 11432246.826307 1421.180664
487 11435267.021922 1421.193359
488 11407985.969646 1421.206055
489 11453769.821248 1421.218750
490 11444882.779089 1421.231445
491 11439080.688027 1421.244141
492 11467849.389545 1421.256836
493 11473600.539629 1421.269531
494 11458662.745363 1421.282227
495 11488704.971332 1421.294922
496 11459814.529511 1421.307617
497 11495809.942664 1421.320312
498 11462499.723440 1421.333008
499 11503893.153457 1421.345703
500 11509758.273187 1421.358398
501 11507422.758853 1421.371094
502 11522118.799325 1421.383789
503 11512744.795953 1421.396484
504 11496042.198988 1421.409180
505 11515099.305228 1421.421875
506 11530859.925801 1421.434570
507 11517494.394604 1421.447266
508 11551130.118044 1421.459961
509 11519426.698145 1421.472656
510 11531204.424958 1421.485352
511 11552727.419899 1421.498047
512 11545460.128162 1421.510742
513 11555972.101180 1421.523438
514 11553180.708263 1421.536133
515 11566851.021922 1421.548828
516 11572339.696459 1421.561523
517 11573996.573356 1421.574219
518 11573198.785835 1421.586914
519 11583674.495784 1421.599609
520 11584044.033727 1421.612305
521 11609764.910624 1421.625000
522 11603364.478921 1421.637695
523 11610794.091062 1421.650391
524 11613447.338954 1421.663086
525 11608019.102867 1421.675781
526 11615979.709949 1421.688477
527 11637080.499157 1421.701172
528 11603551.838111 1421.713867
529 11642927.487352 1421.726562
530 11605036.033727 1421.739258
531 11621822.381113 1421.751953
532 11658012.060708 1421.764648
533 11650306.158516 1421.777344
534 11642132.290051 1421.790039
535 11626787.831366 1421.802734
536 11664788.074199 1421.815430
537 11662525.086003 1421.828125
538 11685446.799325 1421.840820
539 11684145.645868 1421.853516
540 11679075.723440 1421.866211
541 11692650.198988 1421.878906
542 11673725.193929 1421.891602
543 11705753.254637 1421.904297
544 11681864.526138 1421.916992
545 11712624.242833 1421.929688
546 11666950.907251 1421.942383
547 11694268.222597 1421.955078
548 11728509.193929 1421.967773
549 11709596.276560 1421.980469
550 11727764.074199 1421.993164
551 11718950.421585 1422.005859
552 11744175.703204 1422.018555
553 11995452.006745 1422.031250
554 11760911.109612 1422.043945
555 11728105.119730 1422.056641
556 11746797.868465 1422.069336
557 11743132.708263 1422.082031
558 11735466.522766 1422.094727
559 11755322.279933 1422.107422
560 11747453.193929 1422.120117
561 11759099.682968 1422.132812
562 11786167.473862 1422.145508
563 11755479.419899 1422.158203
564 11864907.548061 1422.170898
565 12054833.645868 1422.183594
566 11773029.881956 1422.196289
567 11772289.942664 1422.208984
568 11750323.156830 1422.221680
569 11795013.072513 1422.234375
570 11781168.350759 1422.247070
571 11783743.028668 1422.259766
572 11773360.566610 1422.272461
573 11802143.082631 1422.285156
574 11764795.575042 1422.297852
575 11799242.900506 1422.310547
576 11796096.647555 1422.323242
577 11798241.349073 1422.335938
578 11774166.988196 1422.348633
579 11784223.082631 1422.361328
580 11803358.758853 1422.374023
581 11790750.435076 1422.386719
582 11782544.620573 1422.399414
583 11795788.411467 1422.412109
584 11772503.204047 1422.424805
585 11841251.939292 1422.437500
586 11805834.145025 1422.450195
587 11778007.419899 1422.462891
588 11831087.919056 1422.475586
589 11826163.912310 1422.488281
590 11814570.954469 1422.500977
591 11795094.232715 1422.513672
592 11813193.821248 1422.526367
593 11827094.664418 1422.539062
594 11829286.853288 1422.551758
595 11829282.536256 1422.564453
596 11834996.559865 1422.577148
597 11829320.526138 1422.589844
598 11826803.696459 1422.602539
599 11812705.996627 1422.615234
600 11829331.750422 1422.627930
601 11816070.691400 1422.640625
602 11833061.666105 1422.653320
603 11832041.983137 1422.666016
604 11822166.340641 1422.678711
605 11827016.957841 1422.691406
606 11805269.477234 1422.704102
607 11819573.531197 1422.716797
608 11806465.295110 1422.729492
609 11816378.064081 1422.742188
610 11786961.807757 1422.754883
611 11821378.050590 1422.767578
612 11830137.308600 1422.780273
613 11818989.868465 1422.792969
614 11815219.372681 1422.805664
615 11798224.944351 1422.818359
616 11770276.478921 1422.831055
617 11804355.129848 1422.843750
618 11801930.684654 1422.856445
619 11810941.193929 1422.869141
620 11799463.932546 1422.881836
621 11779676.384486 1422.894531
622 11791604.344013 1422.907227
623 11791890.994941 1422.919922
624 11794146.212479 1422.932617
625 11792380.546374 1422.945312
626 11786755.453626 1422.958008
627 11770426.711636 1422.970703
628 11797150.866779 1422.983398
629 11747383.258010 1422.996094
630 11787640.445194 1423.008789
631 11904209.807757 1423.021484
632 11731620.047218 1423.034180
633 11766231.419899 1423.046875
634 11755898.172007 1423.059570
635 11734746.441821 1423.072266
636 11769274.927487 1423.084961
637 11745323.170320 1423.097656
638 11727545.632378 1423.110352
639 11732867.669477 1423.123047
640 11730928.458685 1423.135742
641 11728888.229342 1423.148438
642 11720615.069140 1423.161133
643 11706532.047218 1423.173828
644 11703321.902192 1423.186523
645 11686362.873524 1423.199219
646 11690923.386172 1423.211914
647 11692079.487352 1423.224609
648 11710612.505902 1423.237305
649 11679100.762226 1423.250000
650 11675673.038786 1423.262695
651 11679978.846543 1423.275391
652 11692721.861720 1423.288086
653 11655717.126476 1423.300781
654 11672999.069140 1423.313477
655 11657765.126476 1423.326172
656 11647124.505902 1423.338867
657 11657539.777403 1423.351562
658 11627358.543002 1423.364258
659 11620519.500843 1423.376953
660 11614934.124789 1423.389648
661 11624424.688027 1423.402344
662 11603432.688027 1423.415039
663 11588753.915683 1423.427734
664 11604707.939292 1423.440430
665 11592359.500843 1423.453125
666 11595159.527825 1423.465820
667 11571332.101180 1423.478516
668 11572854.286678 1423.491211
669 11573384.418212 1423.503906
670 11590469.504216 1423.516602
671 11592802.428331 1423.529297
672 11546116.317032 1423.541992
673 11537850.064081 1423.554688
674 11552637.625632 1423.567383
675 11525790.003373 1423.580078
676 11532288.000000 1423.592773
677 11506262.340641 1423.605469
678 11484115.966273 1423.618164
679 11480234.091062 1423.630859
680 11505029.396290 1423.643555
681 11479725.544688 1423.656250
682 11471018.091062 1423.668945
683 11484950.880270 1423.681641
684 11487271.716695 1423.694336
685 11448739.615514 1423.707031
686 11454229.153457 1423.719727
687 11432473.038786 1423.732422
688 11432891.790894 1423.745117
689 11433641.227656 1423.757812
690 11430403.453626 1423.770508
691 11409203.372681 1423.783203
692 11408926.219224 1423.795898
693 11376283.413153 1423.808594
694 11402875.467116 1423.821289
695 11397571.561551 1423.833984
696 11369162.037099 1423.846680
697 11368598.232715 1423.859375
698 11359567.865093 1423.872070
699 11349792.377740 1423.884766
700 11339520.431703 1423.897461
701 11329565.355818 1423.910156
702 11310229.369309 1423.922852
703 11306285.328836 1423.935547
704 11310344.202361 1423.948242
705 11293056.215852 1423.960938
706 11273257.443508 1423.973633
707 11281357.059022 1423.986328
708 11247728.242833 1423.999023
709 11274056.094435 1424.011719
710 11259284.074199 1424.024414
711 11254658.806071 1424.037109
712 11244367.001686 1424.049805
713 11252294.799325 1424.062500
714 11242867.264755 1424.075195
715 11234721.025295 1424.087891
716 11197903.649241 1424.100586
717 11207384.715008 1424.113281
718 11200924.708263 1424.125977
719 11174178.967960 1424.138672
720 11176691.480607 1424.151367
721 11144993.241147 1424.164062
722 11152646.475548 1424.176758
723 11164728.121417 1424.189453
724 11161955.723440 1424.202148
725 11136061.301855 1424.214844
726 11109773.166948 1424.227539
727 11109363.912310 1424.240234
728 11107328.000000 1424.252930
729 11083706.064081 1424.265625
730 11087356.546374 1424.278320
731 11073705.227656 1424.291016
732 11046136.661046 1424.303711
733 11046379.278246 1424.316406
734 11030123.925801 1424.329102
735 11033796.856661 1424.341797
736 11025223.231029 1424.354492
737 11007420.654300 1424.367188
738 11002469.018550 1424.379883
739 11016118.610455 1424.392578
740 11007701.261383 1424.405273
741 10984680.256324 1424.417969
742 10998524.114671 1424.430664
743 10954854.745363 1424.443359
744 10972388.802698 1424.456055
745 10931490.967960 1424.468750
746 10951177.497470 1424.481445
747 10949495.581788 1424.494141
748 10934159.757167 1424.506836
749 10906581.693086 1424.519531
750 10901554.077572 1424.532227
751 10893534.758853 1424.544922
752 10878280.094435 1424.557617
753 10892536.661046 1424.570312
754 10871324.492411 1424.583008
755 10880058.711636 1424.595703
756 10842684.438449 1424.608398
757 10823217.214165 1424.621094
758 10845669.234401 1424.633789
759 10806648.445194 1424.646484
760 10812182.016863 1424.659180
761 10795798.880270 1424.671875
762 10809107.426644 1424.684570
763 10802753.618887 1424.697266
764 10797660.384486 1424.709961
765 10778421.099494 1424.722656
766 10755489.025295 1424.735352
767 10764700.708263 1424.748047
768 10741699.561551 1424.760742
769 10733147.521079 1424.773438
770 10751527.716695 1424.786133
771 10744986.549747 1424.798828
772 10730076.384486 1424.811523
773 10712103.716695 1424.824219
774 10693006.030354 1424.836914
775 10688806.421585 1424.849609
776 10713864.202361 1424.862305
777 10714806.178752 1424.875000
778 10696662.556492 1424.887695
779 10671350.070826 1424.900391
780 10675712.863406 1424.913086
781 10668078.623946 1424.925781
782 10640531.642496 1424.938477
783 10673939.426644 1424.951172
784 10686185.983137 1424.963867
785 10687662.408094 1424.976562
786 10779010.806071 1424.989258
