Spectra obtained from the iBOB Roof spectometer + 3.8 m antenna
rspec_get_spec		Data acquisition program
104.000    		Total bandwidth = FPGA sample rate (MHz)
12.695     		Channel bandwidth in raw spectrum (kHz)
8192      		FFT length (number of channels)
80.000000  		Integration time per spectrum (sec)
260.000   		iBOB downconvert frequency (MHz)
1420.000  		Center Frequency = sum of local oscillator frequencies (MHz) 
9.991     		Output bandwidth (MHz)
787       		Number of output channels
-4.98926  		Frequency of first output sample (MHz)
4.98926   		Frequency of last output sample (MHz)
Spectrum: 0 MJD: 56981.8219 LST: 183638 RA(radians): 4.79034703 DEC(radians): -0.24603835 RA(hhmmss): 18 17 52 DEC(ddmmss): -14 05 49 l(deg): 15 b(deg): 0 LocalDate: 14 11 20 LocalTime: 14 43 37 UTCDate: 14 11 20 UTC: 19 43 37
0 10013766.799325 1415.010742
1 10059319.258010 1415.023438
2 10139470.138280 1415.036133
3 10039367.662732 1415.048828
4 10050722.320405 1415.061523
5 10060419.237774 1415.074219
6 10062367.082631 1415.086914
7 10201290.900506 1415.099609
8 10069565.301855 1415.112305
9 10054405.612142 1415.125000
10 10093668.155143 1415.137695
11 10075094.556492 1415.150391
12 10080075.548061 1415.163086
13 10084731.035413 1415.175781
14 10106509.598651 1415.188477
15 10084117.153457 1415.201172
16 10134383.811130 1415.213867
17 10105930.252951 1415.226562
18 10111709.032040 1415.239258
19 10137852.114671 1415.251953
20 10138472.040472 1415.264648
21 10154994.185497 1415.277344
22 10164715.278246 1415.290039
23 10144616.040472 1415.302734
24 10155391.352445 1415.315430
25 10147770.927487 1415.328125
26 10182025.713322 1415.340820
27 10163543.635750 1415.353516
28 10195998.219224 1415.366211
29 10200256.539629 1415.378906
30 10214461.301855 1415.391602
31 10215051.008432 1415.404297
32 10224038.205734 1415.416992
33 10222408.094435 1415.429688
34 10245467.952782 1415.442383
35 10254396.438449 1415.455078
36 10240938.522766 1415.467773
37 10258442.360877 1415.480469
38 10268343.042159 1415.493164
39 10283364.586847 1415.505859
40 10271385.686341 1415.518555
41 10287205.018550 1415.531250
42 10271645.571669 1415.543945
43 10280061.193929 1415.556641
44 10305078.394604 1415.569336
45 10292011.602024 1415.582031
46 10330322.671164 1415.594727
47 10317191.986509 1415.607422
48 10353068.249578 1415.620117
49 10350802.671164 1415.632812
50 10394753.510961 1415.645508
51 10362761.713322 1415.658203
52 10355684.370995 1415.670898
53 10354672.458685 1415.683594
54 10359441.052277 1415.696289
55 10393782.178752 1415.708984
56 10397211.629005 1415.721680
57 10358751.190556 1415.734375
58 10379812.263069 1415.747070
59 10403113.011804 1415.759766
60 10414792.310287 1415.772461
61 10432688.134907 1415.785156
62 10431962.873524 1415.797852
63 10424850.131535 1415.810547
64 10431940.424958 1415.823242
65 10439231.892074 1415.835938
66 10447949.706577 1415.848633
67 10462855.554806 1415.861328
68 10482559.352445 1415.874023
69 10534056.364250 1415.886719
70 10496398.893761 1415.899414
71 10492844.249578 1415.912109
72 10515653.720067 1415.924805
73 10502828.681282 1415.937500
74 10525834.145025 1415.950195
75 10578277.450253 1415.962891
76 10538673.861720 1415.975586
77 10528660.074199 1415.988281
78 10577467.575042 1416.000977
79 10553084.978078 1416.013672
80 10583524.370995 1416.026367
81 10583373.274874 1416.039062
82 10577200.782462 1416.051758
83 10563578.819562 1416.064453
84 10625563.629005 1416.077148
85 10623164.222597 1416.089844
86 10589575.986509 1416.102539
87 10627248.134907 1416.115234
88 10596061.895447 1416.127930
89 10648053.639123 1416.140625
90 10641705.011804 1416.153320
91 10655483.251265 1416.166016
92 10680437.423272 1416.178711
93 10660246.664418 1416.191406
94 10675291.521079 1416.204102
95 10679068.924115 1416.216797
96 10692649.443508 1416.229492
97 10705597.086003 1416.242188
98 10704001.510961 1416.254883
99 10719642.981450 1416.267578
100 10722072.607083 1416.280273
101 10730827.548061 1416.292969
102 10733129.389545 1416.305664
103 10757715.750422 1416.318359
104 10743134.543002 1416.331055
105 10782712.229342 1416.343750
106 10774053.126476 1416.356445
107 10787942.745363 1416.369141
108 10772673.403035 1416.381836
109 10796415.352445 1416.394531
110 10837175.042159 1416.407227
111 10797307.251265 1416.419922
112 10846902.178752 1416.432617
113 10849098.684654 1416.445312
114 10829117.733558 1416.458008
115 10921199.163575 1416.470703
116 10850659.723440 1416.483398
117 10878435.507589 1416.496094
118 10845317.827993 1416.508789
119 10859841.187184 1416.521484
120 10866056.849916 1416.534180
121 10885205.477234 1416.546875
122 10872503.905565 1416.559570
123 10888138.468803 1416.572266
124 10921027.345700 1416.584961
125 10896924.492411 1416.597656
126 10908047.757167 1416.610352
127 10922881.079258 1416.623047
128 10936894.165261 1416.635742
129 10944214.124789 1416.648438
130 10972680.634064 1416.661133
131 10998347.116358 1416.673828
132 10951362.266442 1416.686523
133 10982118.529511 1416.699219
134 10964830.543002 1416.711914
135 10980627.426644 1416.724609
136 11034419.372681 1416.737305
137 11079692.087690 1416.750000
138 11035659.224283 1416.762695
139 11008729.578415 1416.775391
140 11036573.571669 1416.788086
141 11019555.831366 1416.800781
142 11078675.858347 1416.813477
143 11052547.453626 1416.826172
144 11058943.568297 1416.838867
145 11073102.569983 1416.851562
146 11059655.878583 1416.864258
147 11145569.133221 1416.876953
148 11087910.853288 1416.889648
149 11090247.231029 1416.902344
150 11102546.455312 1416.915039
151 11114624.647555 1416.927734
152 11123475.426644 1416.940430
153 11090640.944351 1416.953125
154 11132474.711636 1416.965820
155 11110149.612142 1416.978516
156 11153640.256324 1416.991211
157 11127833.902192 1417.003906
158 11146342.745363 1417.016602
159 11147883.062395 1417.029297
160 11156393.659359 1417.041992
161 11182623.946037 1417.054688
162 11166255.487352 1417.067383
163 11170297.956155 1417.080078
164 11191113.821248 1417.092773
165 11197803.494098 1417.105469
166 11188519.284992 1417.118164
167 11184427.602024 1417.130859
168 11194730.630691 1417.143555
169 11191634.455312 1417.156250
170 11208849.052277 1417.168945
171 11207139.507589 1417.181641
172 11239158.934233 1417.194336
173 11250329.686341 1417.207031
174 11279116.519393 1417.219727
175 11243877.450253 1417.232422
176 11250498.050590 1417.245117
177 11259938.536256 1417.257812
178 11265912.445194 1417.270508
179 11299306.414840 1417.283203
180 11273942.988196 1417.295898
181 11264024.175379 1417.308594
182 11281639.392917 1417.321289
183 11292980.236088 1417.333984
184 11327667.588533 1417.346680
185 11278431.838111 1417.359375
186 11304844.303541 1417.372070
187 11326470.043845 1417.384766
188 11291276.735245 1417.397461
189 11301465.794266 1417.410156
190 11305004.897133 1417.422852
191 11311502.030354 1417.435547
192 11294802.887015 1417.448242
193 11337669.288364 1417.460938
194 11371456.107926 1417.473633
195 11443510.826307 1417.486328
196 11447782.097808 1417.499023
197 11570909.032040 1417.511719
198 11361795.453626 1417.524414
199 11377597.517707 1417.537109
200 11378226.940978 1417.549805
201 11367292.762226 1417.562500
202 11411255.689713 1417.575195
203 11382217.605396 1417.587891
204 11372638.974705 1417.600586
205 11358022.367622 1417.613281
206 11386818.698145 1417.625977
207 11392506.819562 1417.638672
208 11428834.644182 1417.651367
209 11416620.033727 1417.664062
210 11351227.359191 1417.676758
211 11426228.020236 1417.689453
212 11365216.269815 1417.702148
213 11434237.841484 1417.714844
214 11410761.821248 1417.727539
215 11388319.298482 1417.740234
216 11426051.885329 1417.752930
217 11406180.586847 1417.765625
218 11459331.021922 1417.778320
219 11397868.573356 1417.791016
220 11433365.801012 1417.803711
221 11402623.352445 1417.816406
222 11423269.126476 1417.829102
223 11418421.962901 1417.841797
224 11402386.779089 1417.854492
225 11413394.347386 1417.867188
226 11407701.045531 1417.879883
227 11430694.421585 1417.892578
228 11411727.973019 1417.905273
229 11449020.222597 1417.917969
230 11427502.408094 1417.930664
231 11426337.672850 1417.943359
232 11483668.721754 1417.956055
233 11431749.504216 1417.968750
234 11458347.602024 1417.981445
235 11431924.775717 1417.994141
236 11427666.455312 1418.006836
237 11409827.615514 1418.019531
238 11420660.775717 1418.032227
239 11464753.214165 1418.044922
240 11391731.480607 1418.057617
241 11479585.672850 1418.070312
242 11431885.059022 1418.083008
243 11425898.198988 1418.095703
244 11441389.436762 1418.108398
245 11441970.509275 1418.121094
246 11438788.856661 1418.133789
247 11430657.295110 1418.146484
248 11466977.349073 1418.159180
249 11457187.183811 1418.171875
250 11459774.812816 1418.184570
251 11432116.451939 1418.197266
252 11452622.354132 1418.209961
253 11468291.453626 1418.222656
254 11444640.161889 1418.235352
255 11439977.767285 1418.248047
256 11422923.763912 1418.260742
257 11438371.831366 1418.273438
258 11433902.839798 1418.286133
259 11439839.622260 1418.298828
260 11446439.500843 1418.311523
261 11421276.384486 1418.324219
262 11453433.956155 1418.336914
263 11412055.204047 1418.349609
264 11422251.170320 1418.362305
265 11427728.620573 1418.375000
266 11432252.870152 1418.387695
267 11434983.824621 1418.400391
268 11420926.704890 1418.413086
269 11443995.197302 1418.425781
270 11434202.441821 1418.438477
271 11495330.752108 1418.451172
272 11437359.919056 1418.463867
273 11448379.575042 1418.476562
274 11422665.605396 1418.489258
275 11413893.396290 1418.501953
276 11421044.991568 1418.514648
277 11415120.296796 1418.527344
278 11424917.369309 1418.540039
279 11412019.804384 1418.552734
280 11445080.499157 1418.565430
281 11426086.421585 1418.578125
282 11411809.133221 1418.590820
283 11407757.166948 1418.603516
284 11402808.984823 1418.616211
285 11420785.106239 1418.628906
286 11408122.387858 1418.641602
287 11421630.381113 1418.654297
288 11417619.858347 1418.666992
289 11383481.632378 1418.679688
290 11415700.505902 1418.692383
291 11410691.885329 1418.705078
292 11389936.458685 1418.717773
293 11381015.743676 1418.730469
294 11395613.355818 1418.743164
295 11374963.264755 1418.755859
296 11369436.600337 1418.768555
297 11370803.372681 1418.781250
298 11385401.848229 1418.793945
299 11392841.821248 1418.806641
300 11381151.298482 1418.819336
301 11387514.603710 1418.832031
302 11367015.608769 1418.844727
303 11366351.649241 1418.857422
304 11355926.880270 1418.870117
305 11377984.323777 1418.882812
306 11379192.229342 1418.895508
307 11375495.986509 1418.908203
308 11349307.143339 1418.920898
309 11374873.470489 1418.933594
310 11347289.362563 1418.946289
311 11340612.640809 1418.958984
312 11320783.649241 1418.971680
313 11380699.736931 1418.984375
314 11444278.394604 1418.997070
315 11355074.698145 1419.009766
316 11385502.866779 1419.022461
317 11342494.003373 1419.035156
318 11354894.246206 1419.047852
319 11384564.344013 1419.060547
320 11321415.662732 1419.073242
321 11354238.920742 1419.085938
322 11323256.445194 1419.098633
323 11329087.892074 1419.111328
324 11322299.790894 1419.124023
325 11354377.929174 1419.136719
326 11322675.372681 1419.149414
327 11312878.300169 1419.162109
328 11324530.833052 1419.174805
329 11304283.952782 1419.187500
330 11306610.833052 1419.200195
331 11303374.785835 1419.212891
332 11306134.232715 1419.225586
333 11305135.271501 1419.238281
334 11323351.419899 1419.250977
335 11315803.521079 1419.263672
336 11282176.431703 1419.276367
337 11303141.666105 1419.289062
338 11262234.333895 1419.301758
339 11297273.956155 1419.314453
340 11313010.401349 1419.327148
341 11294482.563238 1419.339844
342 11294587.898820 1419.352539
343 11280814.839798 1419.365234
344 11317443.993255 1419.377930
345 11260484.209106 1419.390625
346 11254038.880270 1419.403320
347 11268389.558179 1419.416016
348 11267890.509275 1419.428711
349 11281667.021922 1419.441406
350 11270481.591906 1419.454102
351 11335294.057336 1419.466797
352 11246715.467116 1419.479492
353 11282520.067454 1419.492188
354 11252486.475548 1419.504883
355 11250396.168634 1419.517578
356 11257590.934233 1419.530273
357 11257206.718381 1419.542969
358 11295567.865093 1419.555664
359 11248971.548061 1419.568359
360 11254099.318718 1419.581055
361 11247216.242833 1419.593750
362 11252131.615514 1419.606445
363 11275181.112985 1419.619141
364 11262803.318718 1419.631836
365 11301752.445194 1419.644531
366 11303053.598651 1419.657227
367 11369961.551433 1419.669922
368 11393399.581788 1419.682617
369 11419996.816189 1419.695312
370 11477807.919056 1419.708008
371 11520425.659359 1419.720703
372 11557673.011804 1419.733398
373 11644243.318718 1419.746094
374 11705188.586847 1419.758789
375 11766234.873524 1419.771484
376 11798961.430017 1419.784180
377 11815125.261383 1419.796875
378 11753387.386172 1419.809570
379 11728131.885329 1419.822266
380 11729021.193929 1419.834961
381 11754034.077572 1419.847656
382 11734500.370995 1419.860352
383 11701379.237774 1419.873047
384 11689806.138280 1419.885742
385 11652593.322091 1419.898438
386 11733051.575042 1419.911133
387 11756411.035413 1419.923828
388 11799907.723440 1419.936523
389 11795688.256324 1419.949219
390 11816191.568297 1419.961914
391 11814456.984823 1419.974609
392 11845319.446880 1419.987305
393 11930525.571669 1420.000000
394 11945364.937605 1420.012695
395 12023665.537943 1420.025391
396 12145601.834739 1420.038086
397 12297822.111298 1420.050781
398 12491883.925801 1420.063477
399 12670654.812816 1420.076172
400 12963226.118044 1420.088867
401 13149210.765599 1420.101562
402 13322322.023609 1420.114258
403 13465854.704890 1420.126953
404 13562949.935919 1420.139648
405 13725592.391231 1420.152344
406 13888054.394604 1420.165039
407 14130635.332209 1420.177734
408 14292955.736931 1420.190430
409 14513782.286678 1420.203125
410 14780096.539629 1420.215820
411 15164877.059022 1420.228516
412 15560413.895447 1420.241211
413 16084751.973019 1420.253906
414 16552322.806071 1420.266602
415 16822985.173693 1420.279297
416 16963760.134907 1420.291992
417 16908274.185497 1420.304688
418 16712495.055649 1420.317383
419 16233831.177066 1420.330078
420 16048005.396290 1420.342773
421 15882666.522766 1420.355469
422 15935577.794266 1420.368164
423 15876393.011804 1420.380859
424 15156947.534570 1420.393555
425 15041163.008432 1420.406250
426 15275969.834739 1420.418945
427 13952946.293423 1420.431641
428 13765247.784148 1420.444336
429 13708236.195616 1420.457031
430 13863127.851602 1420.469727
431 14040358.421585 1420.482422
432 14058717.032040 1420.495117
433 13863298.806071 1420.507812
434 13478023.554806 1420.520508
435 13094372.370995 1420.533203
436 12692423.015177 1420.545898
437 12346626.158516 1420.558594
438 12025485.598651 1420.571289
439 11801669.072513 1420.583984
440 11623674.387858 1420.596680
441 11546416.782462 1420.609375
442 11505752.930860 1420.622070
443 11446227.966273 1420.634766
444 11426302.273187 1420.647461
445 11422454.070826 1420.660156
446 11410996.667791 1420.672852
447 11407155.372681 1420.685547
448 11387616.485666 1420.698242
449 11399631.649241 1420.710938
450 11385805.922428 1420.723633
451 11362013.032040 1420.736328
452 11421327.325464 1420.749023
453 11364514.320405 1420.761719
454 11388079.271501 1420.774414
455 11397485.220911 1420.787109
456 11384863.082631 1420.799805
457 11415838.650927 1420.812500
458 11371987.102867 1420.825195
459 11414478.785835 1420.837891
460 11410577.052277 1420.850586
461 11407676.006745 1420.863281
462 11399252.613828 1420.875977
463 11392699.359191 1420.888672
464 11440230.745363 1420.901367
465 11411485.355818 1420.914062
466 11419925.153457 1420.926758
467 11440469.045531 1420.939453
468 11430195.372681 1420.952148
469 11407292.654300 1420.964844
470 11415216.998314 1420.977539
471 11426100.236088 1420.990234
472 11426699.440135 1421.002930
473 11419148.951096 1421.015625
474 11430733.274874 1421.028320
475 11439710.974705 1421.041016
476 11436714.954469 1421.053711
477 11440278.232715 1421.066406
478 11440590.785835 1421.079102
479 11451701.099494 1421.091797
480 11492408.121417 1421.104492
481 11453869.112985 1421.117188
482 11471882.360877 1421.129883
483 11495941.180438 1421.142578
484 11489172.937605 1421.155273
485 11498532.263069 1421.167969
486 11492907.170320 1421.180664
487 11511719.069140 1421.193359
488 11500265.983137 1421.206055
489 11507627.386172 1421.218750
490 11504905.929174 1421.231445
491 11520050.077572 1421.244141
492 11495856.566610 1421.256836
493 11531605.045531 1421.269531
494 11539538.023609 1421.282227
495 11549436.978078 1421.294922
496 11533491.588533 1421.307617
497 11551914.091062 1421.320312
498 11565059.453626 1421.333008
499 11556639.514334 1421.345703
500 11597709.166948 1421.358398
501 11590942.650927 1421.371094
502 11564388.586847 1421.383789
503 11579151.109612 1421.396484
504 11546592.917369 1421.409180
505 11586753.403035 1421.421875
506 11582598.691400 1421.434570
507 11574712.337268 1421.447266
508 11626584.067454 1421.459961
509 11578984.472175 1421.472656
510 11602818.806071 1421.485352
511 11597594.333895 1421.498047
512 11630387.372681 1421.510742
513 11599470.516020 1421.523438
514 11615904.593592 1421.536133
515 11643563.817875 1421.548828
516 11649302.016863 1421.561523
517 11625468.546374 1421.574219
518 11652591.595278 1421.586914
519 11666501.935919 1421.599609
520 11645562.603710 1421.612305
521 11662418.887015 1421.625000
522 11663632.836425 1421.637695
523 11659606.772344 1421.650391
524 11659379.696459 1421.663086
525 11671080.580101 1421.675781
526 11697836.681282 1421.688477
527 11665199.919056 1421.701172
528 11679173.288364 1421.713867
529 11719529.767285 1421.726562
530 11686853.288364 1421.739258
531 11698290.833052 1421.751953
532 11696319.676223 1421.764648
533 11738577.376054 1421.777344
534 11721910.178752 1421.790039
535 11732793.416526 1421.802734
536 11744897.510961 1421.815430
537 11721382.637437 1421.828125
538 11747132.870152 1421.840820
539 11776609.564924 1421.853516
540 11748217.308600 1421.866211
541 11760140.951096 1421.878906
542 11757685.423272 1421.891602
543 11750688.377740 1421.904297
544 11757751.042159 1421.916992
545 11778350.192243 1421.929688
546 11770542.408094 1421.942383
547 11787335.662732 1421.955078
548 11790076.978078 1421.967773
549 11800226.320405 1421.980469
550 11806733.814503 1421.993164
551 11798632.472175 1422.005859
552 11819566.623946 1422.018555
553 11955261.301855 1422.031250
554 11840028.492411 1422.043945
555 11798648.013491 1422.056641
556 11800600.175379 1422.069336
557 11846175.946037 1422.082031
558 11806890.091062 1422.094727
559 11848508.006745 1422.107422
560 11812185.362563 1422.120117
561 11835797.801012 1422.132812
562 12001045.153457 1422.145508
563 11892097.942664 1422.158203
564 11845674.306914 1422.170898
565 11813694.596965 1422.183594
566 11851432.364250 1422.196289
567 11812845.005059 1422.208984
568 11838706.617201 1422.221680
569 11820788.344013 1422.234375
570 11848792.067454 1422.247070
571 11887516.708263 1422.259766
572 11867484.816189 1422.272461
573 11838776.553120 1422.285156
574 11837779.318718 1422.297852
575 11849772.033727 1422.310547
576 11844863.568297 1422.323242
577 11867195.575042 1422.335938
578 11857069.544688 1422.348633
579 11858836.937605 1422.361328
580 11871478.070826 1422.374023
581 11868810.145025 1422.386719
582 11860766.650927 1422.399414
583 11868828.276560 1422.412109
584 11866739.696459 1422.424805
585 11906711.959528 1422.437500
586 11866287.271501 1422.450195
587 11866222.516020 1422.462891
588 11895529.983137 1422.475586
589 11858189.382799 1422.488281
590 11883862.772344 1422.500977
591 11871540.236088 1422.513672
592 11869158.097808 1422.526367
593 11875748.478921 1422.539062
594 11870769.214165 1422.551758
595 11877269.801012 1422.564453
596 11887914.738617 1422.577148
597 11891552.269815 1422.589844
598 11888151.311973 1422.602539
599 11880850.347386 1422.615234
600 11882916.478921 1422.627930
601 11898435.345700 1422.640625
602 11892228.317032 1422.653320
603 11887261.139966 1422.666016
604 11888605.463744 1422.678711
605 11864105.443508 1422.691406
606 11887748.101180 1422.704102
607 11882340.586847 1422.716797
608 11878494.974705 1422.729492
609 11868353.403035 1422.742188
610 11881941.693086 1422.754883
611 11866239.784148 1422.767578
612 11877064.310287 1422.780273
613 11891143.015177 1422.792969
614 11858133.261383 1422.805664
615 11882044.438449 1422.818359
616 11868372.397976 1422.831055
617 11866377.929174 1422.843750
618 11863120.296796 1422.856445
619 11875601.699831 1422.869141
620 11838693.666105 1422.881836
621 11848273.160202 1422.894531
622 11858700.519393 1422.907227
623 11858859.386172 1422.919922
624 11860135.500843 1422.932617
625 11874038.934233 1422.945312
626 11862766.300169 1422.958008
627 11856367.595278 1422.970703
628 11848856.822934 1422.983398
629 11835915.224283 1422.996094
630 11851807.082631 1423.008789
631 11947554.536256 1423.021484
632 11812939.116358 1423.034180
633 11811563.709949 1423.046875
634 11826901.261383 1423.059570
635 11801346.158516 1423.072266
636 11801502.435076 1423.084961
637 11820338.509275 1423.097656
638 11787992.715008 1423.110352
639 11774707.480607 1423.123047
640 11790373.126476 1423.135742
641 11774737.699831 1423.148438
642 11760351.622260 1423.161133
643 11766176.161889 1423.173828
644 11771069.949410 1423.186523
645 11767295.136594 1423.199219
646 11769292.195616 1423.211914
647 11765358.516020 1423.224609
648 11760532.074199 1423.237305
649 11742727.770658 1423.250000
650 11749331.966273 1423.262695
651 11747176.903879 1423.275391
652 11753061.018550 1423.288086
653 11750104.715008 1423.300781
654 11739501.220911 1423.313477
655 11718780.330523 1423.326172
656 11728834.698145 1423.338867
657 11746936.013491 1423.351562
658 11697431.743676 1423.364258
659 11690267.197302 1423.376953
660 11677054.489039 1423.389648
661 11703818.360877 1423.402344
662 11697671.770658 1423.415039
663 11689804.411467 1423.427734
664 11668297.821248 1423.440430
665 11695284.451939 1423.453125
666 11653235.696459 1423.465820
667 11680458.037099 1423.478516
668 11663254.664418 1423.491211
669 11654283.871838 1423.503906
670 11660395.925801 1423.516602
671 11638790.043845 1423.529297
672 11610304.539629 1423.541992
673 11625942.556492 1423.554688
674 11589737.335582 1423.567383
675 11598042.441821 1423.580078
676 11586893.274874 1423.592773
677 11587635.804384 1423.605469
678 11591961.470489 1423.618164
679 11570051.669477 1423.630859
680 11543332.694772 1423.643555
681 11542910.489039 1423.656250
682 11537901.868465 1423.668945
683 11521829.558179 1423.681641
684 11539443.048904 1423.694336
685 11538467.399663 1423.707031
686 11519127.959528 1423.719727
687 11498526.219224 1423.732422
688 11509830.799325 1423.745117
689 11500926.489039 1423.757812
690 11480525.059022 1423.770508
691 11457354.684654 1423.783203
692 11476701.032040 1423.795898
693 11461328.080944 1423.808594
694 11466068.182125 1423.821289
695 11437127.662732 1423.833984
696 11422595.669477 1423.846680
697 11445959.446880 1423.859375
698 11431550.920742 1423.872070
699 11408877.868465 1423.884766
700 11386197.908938 1423.897461
701 11389433.956155 1423.910156
702 11389197.382799 1423.922852
703 11367446.448567 1423.935547
704 11355045.342327 1423.948242
705 11342793.605396 1423.960938
706 11352321.295110 1423.973633
707 11345532.330523 1423.986328
708 11317075.318718 1423.999023
709 11338586.225970 1424.011719
710 11314937.524452 1424.024414
711 11323895.365936 1424.037109
712 11287299.021922 1424.049805
713 11288885.962901 1424.062500
714 11295491.021922 1424.075195
715 11277165.220911 1424.087891
716 11267969.942664 1424.100586
717 11276580.694772 1424.113281
718 11259475.750422 1424.125977
719 11244152.013491 1424.138672
720 11198082.374368 1424.151367
721 11211585.187184 1424.164062
722 11214227.210793 1424.176758
723 11215232.215852 1424.189453
724 11256792.283305 1424.202148
725 11173827.561551 1424.214844
726 11151922.940978 1424.227539
727 11157748.344013 1424.240234
728 11165748.667791 1424.252930
729 11150502.637437 1424.265625
730 11118750.866779 1424.278320
731 11129642.738617 1424.291016
732 11130944.755481 1424.303711
733 11096450.806071 1424.316406
734 11079495.231029 1424.329102
735 11082909.139966 1424.341797
736 11070447.595278 1424.354492
737 11052004.370995 1424.367188
738 11060148.020236 1424.379883
739 11052493.059022 1424.392578
740 11066424.121417 1424.405273
741 11067069.949410 1424.417969
742 11026709.153457 1424.430664
743 11021733.342327 1424.443359
744 11006650.495784 1424.456055
745 10994186.360877 1424.468750
746 10976471.851602 1424.481445
747 10995867.413153 1424.494141
748 10964310.772344 1424.506836
749 10979169.996627 1424.519531
750 10946325.153457 1424.532227
751 10955432.364250 1424.544922
752 10941836.303541 1424.557617
753 10927542.610455 1424.570312
754 10938695.231029 1424.583008
755 10911788.897133 1424.595703
756 10904053.639123 1424.608398
757 10873689.362563 1424.621094
758 10896416.809444 1424.633789
759 10871457.456998 1424.646484
760 10865863.446880 1424.659180
761 10865613.059022 1424.671875
762 10866877.949410 1424.684570
763 10865524.991568 1424.697266
764 10856124.222597 1424.709961
765 10841586.185497 1424.722656
766 10845103.703204 1424.735352
767 10812297.713322 1424.748047
768 10797913.362563 1424.760742
769 10787812.370995 1424.773438
770 10809655.689713 1424.786133
771 10788608.431703 1424.798828
772 10762050.913997 1424.811523
773 10760395.763912 1424.824219
774 10768244.991568 1424.836914
775 10749566.920742 1424.849609
776 10760640.107926 1424.862305
777 10762405.774030 1424.875000
778 10758272.647555 1424.887695
779 10755403.548061 1424.900391
780 10727064.822934 1424.913086
781 10729863.123103 1424.925781
782 10718152.741990 1424.938477
783 10736433.645868 1424.951172
784 10732108.843170 1424.963867
785 10732093.301855 1424.976562
786 10837118.057336 1424.989258
